%YAML 1.1
%TAG !u! tag:unity3d.com,2011:
--- !u!29 &1
OcclusionCullingSettings:
  m_ObjectHideFlags: 0
  serializedVersion: 2
  m_OcclusionBakeSettings:
    smallestOccluder: 5
    smallestHole: 0.25
    backfaceThreshold: 100
  m_SceneGUID: 00000000000000000000000000000000
  m_OcclusionCullingData: {fileID: 0}
--- !u!104 &2
RenderSettings:
  m_ObjectHideFlags: 0
  serializedVersion: 9
  m_Fog: 0
  m_FogColor: {r: 0.5, g: 0.5, b: 0.5, a: 1}
  m_FogMode: 3
  m_FogDensity: 0.01
  m_LinearFogStart: 0
  m_LinearFogEnd: 300
  m_AmbientSkyColor: {r: 0.2, g: 0.2, b: 0.2, a: 1}
  m_AmbientEquatorColor: {r: 0.2, g: 0.2, b: 0.2, a: 1}
  m_AmbientGroundColor: {r: 0.2, g: 0.2, b: 0.2, a: 1}
  m_AmbientIntensity: 1
  m_AmbientMode: 3
  m_SubtractiveShadowColor: {r: 0.42, g: 0.478, b: 0.627, a: 1}
  m_SkyboxMaterial: {fileID: 0}
  m_HaloStrength: 0.5
  m_FlareStrength: 1
  m_FlareFadeSpeed: 3
  m_HaloTexture: {fileID: 0}
  m_SpotCookie: {fileID: 10001, guid: 0000000000000000e000000000000000, type: 0}
  m_DefaultReflectionMode: 0
  m_DefaultReflectionResolution: 128
  m_ReflectionBounces: 1
  m_ReflectionIntensity: 1
  m_CustomReflection: {fileID: 0}
  m_Sun: {fileID: 0}
  m_IndirectSpecularColor: {r: 0, g: 0, b: 0, a: 1}
  m_UseRadianceAmbientProbe: 0
--- !u!157 &4
LightmapSettings:
  m_ObjectHideFlags: 0
  serializedVersion: 11
  m_GIWorkflowMode: 1
  m_GISettings:
    serializedVersion: 2
    m_BounceScale: 1
    m_IndirectOutputScale: 1
    m_AlbedoBoost: 1
    m_EnvironmentLightingMode: 0
    m_EnableBakedLightmaps: 1
    m_EnableRealtimeLightmaps: 0
  m_LightmapEditorSettings:
    serializedVersion: 12
    m_Resolution: 1
    m_BakeResolution: 50
    m_AtlasSize: 1024
    m_AO: 0
    m_AOMaxDistance: 1
    m_CompAOExponent: 0
    m_CompAOExponentDirect: 0
    m_ExtractAmbientOcclusion: 0
    m_Padding: 2
    m_LightmapParameters: {fileID: 0}
    m_LightmapsBakeMode: 1
    m_TextureCompression: 0
    m_FinalGather: 0
    m_FinalGatherFiltering: 1
    m_FinalGatherRayCount: 1024
    m_ReflectionCompression: 2
    m_MixedBakeMode: 1
    m_BakeBackend: 0
    m_PVRSampling: 1
    m_PVRDirectSampleCount: 32
    m_PVRSampleCount: 512
    m_PVRBounces: 2
    m_PVREnvironmentSampleCount: 512
    m_PVREnvironmentReferencePointCount: 2048
    m_PVRFilteringMode: 0
    m_PVRDenoiserTypeDirect: 0
    m_PVRDenoiserTypeIndirect: 0
    m_PVRDenoiserTypeAO: 0
    m_PVRFilterTypeDirect: 0
    m_PVRFilterTypeIndirect: 0
    m_PVRFilterTypeAO: 0
    m_PVREnvironmentMIS: 0
    m_PVRCulling: 1
    m_PVRFilteringGaussRadiusDirect: 1
    m_PVRFilteringGaussRadiusIndirect: 5
    m_PVRFilteringGaussRadiusAO: 2
    m_PVRFilteringAtrousPositionSigmaDirect: 0.5
    m_PVRFilteringAtrousPositionSigmaIndirect: 2
    m_PVRFilteringAtrousPositionSigmaAO: 1
    m_ExportTrainingData: 0
    m_TrainingDataDestination: TrainingData
  m_LightingDataAsset: {fileID: 0}
  m_UseShadowmask: 0
--- !u!196 &5
NavMeshSettings:
  serializedVersion: 2
  m_ObjectHideFlags: 0
  m_BuildSettings:
    serializedVersion: 2
    agentTypeID: 0
    agentRadius: 0.5
    agentHeight: 2
    agentSlope: 45
    agentClimb: 0.4
    ledgeDropHeight: 0
    maxJumpAcrossDistance: 0
    minRegionArea: 2
    manualCellSize: 0
    cellSize: 0.16666666
    manualTileSize: 0
    tileSize: 256
    accuratePlacement: 0
    debug:
      m_Flags: 0
  m_NavMeshData: {fileID: 0}
--- !u!1 &59639144
GameObject:
  m_ObjectHideFlags: 0
  m_CorrespondingSourceObject: {fileID: 0}
  m_PrefabInstance: {fileID: 0}
  m_PrefabAsset: {fileID: 0}
  serializedVersion: 6
  m_Component:
  - component: {fileID: 59639146}
  - component: {fileID: 59639145}
  m_Layer: 0
  m_Name: Point light
  m_TagString: Untagged
  m_Icon: {fileID: 0}
  m_NavMeshLayer: 0
  m_StaticEditorFlags: 0
  m_IsActive: 1
--- !u!108 &59639145
Light:
  m_ObjectHideFlags: 0
  m_CorrespondingSourceObject: {fileID: 0}
  m_PrefabInstance: {fileID: 0}
  m_PrefabAsset: {fileID: 0}
  m_GameObject: {fileID: 59639144}
  m_Enabled: 1
  serializedVersion: 9
  m_Type: 2
  m_Color: {r: 0.1281358, g: 0.14025024, b: 0.2205882, a: 1}
  m_Intensity: 10
  m_Range: 200
  m_SpotAngle: 30
  m_InnerSpotAngle: 21.80208
  m_CookieSize: 10
  m_Shadows:
    m_Type: 0
    m_Resolution: -1
    m_CustomResolution: -1
    m_Strength: 1
    m_Bias: 0.05
    m_NormalBias: 0.4
    m_NearPlane: 0.2
    m_CullingMatrixOverride:
      e00: 1
      e01: 0
      e02: 0
      e03: 0
      e10: 0
      e11: 1
      e12: 0
      e13: 0
      e20: 0
      e21: 0
      e22: 1
      e23: 0
      e30: 0
      e31: 0
      e32: 0
      e33: 1
    m_UseCullingMatrixOverride: 0
  m_Cookie: {fileID: 0}
  m_DrawHalo: 0
  m_Flare: {fileID: 0}
  m_RenderMode: 0
  m_CullingMask:
    serializedVersion: 2
    m_Bits: 4294967295
  m_RenderingLayerMask: 1
  m_Lightmapping: 1
  m_LightShadowCasterMode: 0
  m_AreaSize: {x: 1, y: 1}
  m_BounceIntensity: 1
  m_ColorTemperature: 6570
  m_UseColorTemperature: 0
  m_BoundingSphereOverride: {x: 0, y: 0, z: 0, w: 0}
  m_UseBoundingSphereOverride: 0
  m_ShadowRadius: 0
  m_ShadowAngle: 0
--- !u!4 &59639146
Transform:
  m_ObjectHideFlags: 0
  m_CorrespondingSourceObject: {fileID: 0}
  m_PrefabInstance: {fileID: 0}
  m_PrefabAsset: {fileID: 0}
  m_GameObject: {fileID: 59639144}
  m_LocalRotation: {x: 0, y: 0, z: 0, w: 1}
  m_LocalPosition: {x: -16.5, y: 25.75, z: 0}
  m_LocalScale: {x: 1, y: 1, z: 1}
  m_Children: []
  m_Father: {fileID: 0}
  m_RootOrder: 10
  m_LocalEulerAnglesHint: {x: 0, y: 0, z: 0}
--- !u!1 &90376329
GameObject:
  m_ObjectHideFlags: 0
  m_CorrespondingSourceObject: {fileID: 0}
  m_PrefabInstance: {fileID: 0}
  m_PrefabAsset: {fileID: 0}
  serializedVersion: 6
  m_Component:
  - component: {fileID: 90376331}
  - component: {fileID: 90376330}
  m_Layer: 0
  m_Name: Point light
  m_TagString: Untagged
  m_Icon: {fileID: 0}
  m_NavMeshLayer: 0
  m_StaticEditorFlags: 0
  m_IsActive: 1
--- !u!108 &90376330
Light:
  m_ObjectHideFlags: 0
  m_CorrespondingSourceObject: {fileID: 0}
  m_PrefabInstance: {fileID: 0}
  m_PrefabAsset: {fileID: 0}
  m_GameObject: {fileID: 90376329}
  m_Enabled: 1
  serializedVersion: 9
  m_Type: 2
  m_Color: {r: 1, g: 0.667647, b: 0.16911763, a: 1}
  m_Intensity: 10
  m_Range: 6
  m_SpotAngle: 30
  m_InnerSpotAngle: 21.80208
  m_CookieSize: 10
  m_Shadows:
    m_Type: 0
    m_Resolution: -1
    m_CustomResolution: -1
    m_Strength: 1
    m_Bias: 0.05
    m_NormalBias: 0.4
    m_NearPlane: 0.2
    m_CullingMatrixOverride:
      e00: 1
      e01: 0
      e02: 0
      e03: 0
      e10: 0
      e11: 1
      e12: 0
      e13: 0
      e20: 0
      e21: 0
      e22: 1
      e23: 0
      e30: 0
      e31: 0
      e32: 0
      e33: 1
    m_UseCullingMatrixOverride: 0
  m_Cookie: {fileID: 0}
  m_DrawHalo: 0
  m_Flare: {fileID: 0}
  m_RenderMode: 0
  m_CullingMask:
    serializedVersion: 2
    m_Bits: 4294967295
  m_RenderingLayerMask: 1
  m_Lightmapping: 1
  m_LightShadowCasterMode: 0
  m_AreaSize: {x: 1, y: 1}
  m_BounceIntensity: 1
  m_ColorTemperature: 6570
  m_UseColorTemperature: 0
  m_BoundingSphereOverride: {x: 0, y: 0, z: 0, w: 0}
  m_UseBoundingSphereOverride: 0
  m_ShadowRadius: 0
  m_ShadowAngle: 0
--- !u!4 &90376331
Transform:
  m_ObjectHideFlags: 0
  m_CorrespondingSourceObject: {fileID: 0}
  m_PrefabInstance: {fileID: 0}
  m_PrefabAsset: {fileID: 0}
  m_GameObject: {fileID: 90376329}
  m_LocalRotation: {x: 0, y: 0, z: 0, w: 1}
  m_LocalPosition: {x: 10.883255, y: 1.5, z: -5.5}
  m_LocalScale: {x: 1, y: 1, z: 1}
  m_Children: []
  m_Father: {fileID: 0}
  m_RootOrder: 20
  m_LocalEulerAnglesHint: {x: 0, y: 0, z: 0}
--- !u!1001 &161123077
PrefabInstance:
  m_ObjectHideFlags: 0
  serializedVersion: 2
  m_Modification:
    m_TransformParent: {fileID: 0}
    m_Modifications:
    - target: {fileID: 400002, guid: 883d4e1770a426943ac00edd5ba02308, type: 3}
      propertyPath: m_LocalPosition.x
      value: -2.2
      objectReference: {fileID: 0}
    - target: {fileID: 400002, guid: 883d4e1770a426943ac00edd5ba02308, type: 3}
      propertyPath: m_LocalPosition.y
      value: 5.54
      objectReference: {fileID: 0}
    - target: {fileID: 400002, guid: 883d4e1770a426943ac00edd5ba02308, type: 3}
      propertyPath: m_LocalPosition.z
      value: -2.38
      objectReference: {fileID: 0}
    - target: {fileID: 400002, guid: 883d4e1770a426943ac00edd5ba02308, type: 3}
      propertyPath: m_LocalRotation.x
      value: 0.18570651
      objectReference: {fileID: 0}
    - target: {fileID: 400002, guid: 883d4e1770a426943ac00edd5ba02308, type: 3}
      propertyPath: m_LocalRotation.y
      value: 0.68228525
      objectReference: {fileID: 0}
    - target: {fileID: 400002, guid: 883d4e1770a426943ac00edd5ba02308, type: 3}
      propertyPath: m_LocalRotation.z
      value: -0.1857065
      objectReference: {fileID: 0}
    - target: {fileID: 400002, guid: 883d4e1770a426943ac00edd5ba02308, type: 3}
      propertyPath: m_LocalRotation.w
      value: 0.68228525
      objectReference: {fileID: 0}
    - target: {fileID: 400002, guid: 883d4e1770a426943ac00edd5ba02308, type: 3}
      propertyPath: m_RootMapOrder
      value: 
      objectReference: {fileID: 0}
    - target: {fileID: 400002, guid: 883d4e1770a426943ac00edd5ba02308, type: 3}
      propertyPath: m_RootOrder
      value: 22
      objectReference: {fileID: 0}
    - target: {fileID: 400002, guid: 883d4e1770a426943ac00edd5ba02308, type: 3}
      propertyPath: m_LocalEulerAnglesHint.x
      value: 30.4522
      objectReference: {fileID: 0}
    - target: {fileID: 2000000, guid: 883d4e1770a426943ac00edd5ba02308, type: 3}
      propertyPath: m_BackGroundColor.r
      value: 0.023529414
      objectReference: {fileID: 0}
    - target: {fileID: 2000000, guid: 883d4e1770a426943ac00edd5ba02308, type: 3}
      propertyPath: m_BackGroundColor.g
      value: 0.023529414
      objectReference: {fileID: 0}
    - target: {fileID: 2000000, guid: 883d4e1770a426943ac00edd5ba02308, type: 3}
      propertyPath: m_BackGroundColor.b
      value: 0.023529414
      objectReference: {fileID: 0}
    - target: {fileID: 2000000, guid: 883d4e1770a426943ac00edd5ba02308, type: 3}
      propertyPath: field of view
      value: 60
      objectReference: {fileID: 0}
    - target: {fileID: 2000000, guid: 883d4e1770a426943ac00edd5ba02308, type: 3}
      propertyPath: m_ClearFlags
      value: 2
      objectReference: {fileID: 0}
    - target: {fileID: 11400002, guid: 883d4e1770a426943ac00edd5ba02308, type: 3}
      propertyPath: VPselStrings.Array.size
      value: 11
      objectReference: {fileID: 0}
    - target: {fileID: 11400002, guid: 883d4e1770a426943ac00edd5ba02308, type: 3}
      propertyPath: VPselStrings.Array.data[10]
      value: 11
      objectReference: {fileID: 0}
    m_RemovedComponents: []
  m_SourcePrefab: {fileID: 100100000, guid: 883d4e1770a426943ac00edd5ba02308, type: 3}
--- !u!1 &280402574
GameObject:
  m_ObjectHideFlags: 0
  m_CorrespondingSourceObject: {fileID: 0}
  m_PrefabInstance: {fileID: 0}
  m_PrefabAsset: {fileID: 0}
  serializedVersion: 6
  m_Component:
  - component: {fileID: 280402576}
  - component: {fileID: 280402575}
  m_Layer: 0
  m_Name: Point light
  m_TagString: Untagged
  m_Icon: {fileID: 0}
  m_NavMeshLayer: 0
  m_StaticEditorFlags: 0
  m_IsActive: 1
--- !u!108 &280402575
Light:
  m_ObjectHideFlags: 0
  m_CorrespondingSourceObject: {fileID: 0}
  m_PrefabInstance: {fileID: 0}
  m_PrefabAsset: {fileID: 0}
  m_GameObject: {fileID: 280402574}
  m_Enabled: 1
  serializedVersion: 9
  m_Type: 2
  m_Color: {r: 1, g: 0.59888434, b: 0.16911763, a: 1}
  m_Intensity: 4
  m_Range: 25
  m_SpotAngle: 30
  m_InnerSpotAngle: 21.80208
  m_CookieSize: 10
  m_Shadows:
    m_Type: 0
    m_Resolution: -1
    m_CustomResolution: -1
    m_Strength: 1
    m_Bias: 0.05
    m_NormalBias: 0.4
    m_NearPlane: 0.2
    m_CullingMatrixOverride:
      e00: 1
      e01: 0
      e02: 0
      e03: 0
      e10: 0
      e11: 1
      e12: 0
      e13: 0
      e20: 0
      e21: 0
      e22: 1
      e23: 0
      e30: 0
      e31: 0
      e32: 0
      e33: 1
    m_UseCullingMatrixOverride: 0
  m_Cookie: {fileID: 0}
  m_DrawHalo: 0
  m_Flare: {fileID: 0}
  m_RenderMode: 0
  m_CullingMask:
    serializedVersion: 2
    m_Bits: 4294967295
  m_RenderingLayerMask: 1
  m_Lightmapping: 1
  m_LightShadowCasterMode: 0
  m_AreaSize: {x: 1, y: 1}
  m_BounceIntensity: 1
  m_ColorTemperature: 6570
  m_UseColorTemperature: 0
  m_BoundingSphereOverride: {x: 0, y: 0, z: 0, w: 0}
  m_UseBoundingSphereOverride: 0
  m_ShadowRadius: 0
  m_ShadowAngle: 0
--- !u!4 &280402576
Transform:
  m_ObjectHideFlags: 0
  m_CorrespondingSourceObject: {fileID: 0}
  m_PrefabInstance: {fileID: 0}
  m_PrefabAsset: {fileID: 0}
  m_GameObject: {fileID: 280402574}
  m_LocalRotation: {x: 0, y: 0, z: 0, w: 1}
  m_LocalPosition: {x: 13.32, y: 1.5, z: 2.49}
  m_LocalScale: {x: 1, y: 1, z: 1}
  m_Children: []
  m_Father: {fileID: 0}
  m_RootOrder: 19
  m_LocalEulerAnglesHint: {x: 0, y: 0, z: 0}
--- !u!1 &344823127
GameObject:
  m_ObjectHideFlags: 0
  m_CorrespondingSourceObject: {fileID: 0}
  m_PrefabInstance: {fileID: 0}
  m_PrefabAsset: {fileID: 0}
  serializedVersion: 6
  m_Component:
  - component: {fileID: 344823131}
  - component: {fileID: 344823130}
  - component: {fileID: 344823129}
  - component: {fileID: 344823128}
  m_Layer: 0
  m_Name: Plane
  m_TagString: Untagged
  m_Icon: {fileID: 0}
  m_NavMeshLayer: 0
  m_StaticEditorFlags: 0
  m_IsActive: 1
--- !u!23 &344823128
MeshRenderer:
  m_ObjectHideFlags: 0
  m_CorrespondingSourceObject: {fileID: 0}
  m_PrefabInstance: {fileID: 0}
  m_PrefabAsset: {fileID: 0}
  m_GameObject: {fileID: 344823127}
  m_Enabled: 1
  m_CastShadows: 1
  m_ReceiveShadows: 1
  m_DynamicOccludee: 1
  m_MotionVectors: 1
  m_LightProbeUsage: 0
  m_ReflectionProbeUsage: 1
  m_RenderingLayerMask: 1
  m_RendererPriority: 0
  m_Materials:
  - {fileID: 2100000, guid: 2c043007b4d31c340a6ccf15136ec3b1, type: 2}
  m_StaticBatchInfo:
    firstSubMesh: 0
    subMeshCount: 0
  m_StaticBatchRoot: {fileID: 0}
  m_ProbeAnchor: {fileID: 0}
  m_LightProbeVolumeOverride: {fileID: 0}
  m_ScaleInLightmap: 1
  m_ReceiveGI: 1
  m_PreserveUVs: 0
  m_IgnoreNormalsForChartDetection: 0
  m_ImportantGI: 0
  m_StitchLightmapSeams: 1
  m_SelectedEditorRenderState: 3
  m_MinimumChartSize: 4
  m_AutoUVMaxDistance: 0.5
  m_AutoUVMaxAngle: 89
  m_LightmapParameters: {fileID: 0}
  m_SortingLayerID: 0
  m_SortingLayer: 0
  m_SortingOrder: 0
--- !u!64 &344823129
MeshCollider:
  m_ObjectHideFlags: 0
  m_CorrespondingSourceObject: {fileID: 0}
  m_PrefabInstance: {fileID: 0}
  m_PrefabAsset: {fileID: 0}
  m_GameObject: {fileID: 344823127}
  m_Material: {fileID: 0}
  m_IsTrigger: 0
  m_Enabled: 1
  serializedVersion: 3
  m_Convex: 0
  m_CookingOptions: 14
  m_Mesh: {fileID: 10209, guid: 0000000000000000e000000000000000, type: 0}
--- !u!33 &344823130
MeshFilter:
  m_ObjectHideFlags: 0
  m_CorrespondingSourceObject: {fileID: 0}
  m_PrefabInstance: {fileID: 0}
  m_PrefabAsset: {fileID: 0}
  m_GameObject: {fileID: 344823127}
  m_Mesh: {fileID: 10209, guid: 0000000000000000e000000000000000, type: 0}
--- !u!4 &344823131
Transform:
  m_ObjectHideFlags: 0
  m_CorrespondingSourceObject: {fileID: 0}
  m_PrefabInstance: {fileID: 0}
  m_PrefabAsset: {fileID: 0}
  m_GameObject: {fileID: 344823127}
  m_LocalRotation: {x: 0, y: 0, z: -0.130526, w: 0.9914449}
  m_LocalPosition: {x: -29.281425, y: -0.9181862, z: -0.26493835}
  m_LocalScale: {x: 5, y: 5, z: 5}
  m_Children: []
  m_Father: {fileID: 0}
  m_RootOrder: 16
  m_LocalEulerAnglesHint: {x: 0, y: 0, z: 0}
--- !u!4 &346526660 stripped
Transform:
  m_CorrespondingSourceObject: {fileID: 400000, guid: 523572be97715d44f89441e6b8fc12ef,
    type: 3}
  m_PrefabInstance: {fileID: 1744142145}
  m_PrefabAsset: {fileID: 0}
--- !u!4 &490272860 stripped
Transform:
  m_CorrespondingSourceObject: {fileID: 400006, guid: b3840ae88f4e8ab4a9f77d84b8640d17,
    type: 3}
  m_PrefabInstance: {fileID: 789489714}
  m_PrefabAsset: {fileID: 0}
--- !u!1 &507118667
GameObject:
  m_ObjectHideFlags: 0
  m_CorrespondingSourceObject: {fileID: 0}
  m_PrefabInstance: {fileID: 0}
  m_PrefabAsset: {fileID: 0}
  serializedVersion: 6
  m_Component:
  - component: {fileID: 507118671}
  - component: {fileID: 507118670}
  - component: {fileID: 507118669}
  - component: {fileID: 507118668}
  m_Layer: 0
  m_Name: Plane
  m_TagString: Untagged
  m_Icon: {fileID: 0}
  m_NavMeshLayer: 0
  m_StaticEditorFlags: 0
  m_IsActive: 1
--- !u!23 &507118668
MeshRenderer:
  m_ObjectHideFlags: 0
  m_CorrespondingSourceObject: {fileID: 0}
  m_PrefabInstance: {fileID: 0}
  m_PrefabAsset: {fileID: 0}
  m_GameObject: {fileID: 507118667}
  m_Enabled: 1
  m_CastShadows: 1
  m_ReceiveShadows: 1
  m_DynamicOccludee: 1
  m_MotionVectors: 1
  m_LightProbeUsage: 0
  m_ReflectionProbeUsage: 1
  m_RenderingLayerMask: 1
  m_RendererPriority: 0
  m_Materials:
  - {fileID: 2100000, guid: 2c043007b4d31c340a6ccf15136ec3b1, type: 2}
  m_StaticBatchInfo:
    firstSubMesh: 0
    subMeshCount: 0
  m_StaticBatchRoot: {fileID: 0}
  m_ProbeAnchor: {fileID: 0}
  m_LightProbeVolumeOverride: {fileID: 0}
  m_ScaleInLightmap: 1
  m_ReceiveGI: 1
  m_PreserveUVs: 0
  m_IgnoreNormalsForChartDetection: 0
  m_ImportantGI: 0
  m_StitchLightmapSeams: 1
  m_SelectedEditorRenderState: 3
  m_MinimumChartSize: 4
  m_AutoUVMaxDistance: 0.5
  m_AutoUVMaxAngle: 89
  m_LightmapParameters: {fileID: 0}
  m_SortingLayerID: 0
  m_SortingLayer: 0
  m_SortingOrder: 0
--- !u!64 &507118669
MeshCollider:
  m_ObjectHideFlags: 0
  m_CorrespondingSourceObject: {fileID: 0}
  m_PrefabInstance: {fileID: 0}
  m_PrefabAsset: {fileID: 0}
  m_GameObject: {fileID: 507118667}
  m_Material: {fileID: 0}
  m_IsTrigger: 0
  m_Enabled: 1
  serializedVersion: 3
  m_Convex: 0
  m_CookingOptions: 14
  m_Mesh: {fileID: 10209, guid: 0000000000000000e000000000000000, type: 0}
--- !u!33 &507118670
MeshFilter:
  m_ObjectHideFlags: 0
  m_CorrespondingSourceObject: {fileID: 0}
  m_PrefabInstance: {fileID: 0}
  m_PrefabAsset: {fileID: 0}
  m_GameObject: {fileID: 507118667}
  m_Mesh: {fileID: 10209, guid: 0000000000000000e000000000000000, type: 0}
--- !u!4 &507118671
Transform:
  m_ObjectHideFlags: 0
  m_CorrespondingSourceObject: {fileID: 0}
  m_PrefabInstance: {fileID: 0}
  m_PrefabAsset: {fileID: 0}
  m_GameObject: {fileID: 507118667}
  m_LocalRotation: {x: 0, y: 0, z: -0.007681632, w: 0.9999705}
  m_LocalPosition: {x: -78.32209, y: 5.9024963, z: -0.26493835}
  m_LocalScale: {x: 5, y: 5, z: 5}
  m_Children: []
  m_Father: {fileID: 0}
  m_RootOrder: 13
  m_LocalEulerAnglesHint: {x: 0, y: 0, z: 0}
--- !u!4 &715833425 stripped
Transform:
  m_CorrespondingSourceObject: {fileID: 400006, guid: b171dbb60a93c054b96e5cad113ede75,
    type: 3}
  m_PrefabInstance: {fileID: 1349708121}
  m_PrefabAsset: {fileID: 0}
--- !u!1001 &789489714
PrefabInstance:
  m_ObjectHideFlags: 0
  serializedVersion: 2
  m_Modification:
    m_TransformParent: {fileID: 1116949673}
    m_Modifications:
    - target: {fileID: 400006, guid: b3840ae88f4e8ab4a9f77d84b8640d17, type: 3}
      propertyPath: m_LocalPosition.x
      value: -1.0374908
      objectReference: {fileID: 0}
    - target: {fileID: 400006, guid: b3840ae88f4e8ab4a9f77d84b8640d17, type: 3}
      propertyPath: m_LocalPosition.y
      value: 0
      objectReference: {fileID: 0}
    - target: {fileID: 400006, guid: b3840ae88f4e8ab4a9f77d84b8640d17, type: 3}
      propertyPath: m_LocalPosition.z
      value: -6.551343
      objectReference: {fileID: 0}
    - target: {fileID: 400006, guid: b3840ae88f4e8ab4a9f77d84b8640d17, type: 3}
      propertyPath: m_LocalRotation.x
      value: -0.7071068
      objectReference: {fileID: 0}
    - target: {fileID: 400006, guid: b3840ae88f4e8ab4a9f77d84b8640d17, type: 3}
      propertyPath: m_LocalRotation.y
      value: 0
      objectReference: {fileID: 0}
    - target: {fileID: 400006, guid: b3840ae88f4e8ab4a9f77d84b8640d17, type: 3}
      propertyPath: m_LocalRotation.z
      value: 0
      objectReference: {fileID: 0}
    - target: {fileID: 400006, guid: b3840ae88f4e8ab4a9f77d84b8640d17, type: 3}
      propertyPath: m_LocalRotation.w
      value: 0.7071068
      objectReference: {fileID: 0}
    - target: {fileID: 400006, guid: b3840ae88f4e8ab4a9f77d84b8640d17, type: 3}
      propertyPath: m_RootOrder
      value: 1
      objectReference: {fileID: 0}
    m_RemovedComponents: []
  m_SourcePrefab: {fileID: 100100000, guid: b3840ae88f4e8ab4a9f77d84b8640d17, type: 3}
--- !u!1001 &813946684
PrefabInstance:
  m_ObjectHideFlags: 0
  serializedVersion: 2
  m_Modification:
    m_TransformParent: {fileID: 0}
    m_Modifications:
    - target: {fileID: 400004, guid: 161053c6d66bd2b4b8d427f9722fabfe, type: 3}
      propertyPath: m_LocalPosition.x
      value: 3.62
      objectReference: {fileID: 0}
    - target: {fileID: 400004, guid: 161053c6d66bd2b4b8d427f9722fabfe, type: 3}
      propertyPath: m_LocalPosition.y
      value: 3.67
      objectReference: {fileID: 0}
    - target: {fileID: 400004, guid: 161053c6d66bd2b4b8d427f9722fabfe, type: 3}
      propertyPath: m_LocalPosition.z
      value: -1.35
      objectReference: {fileID: 0}
    - target: {fileID: 400004, guid: 161053c6d66bd2b4b8d427f9722fabfe, type: 3}
      propertyPath: m_LocalRotation.x
      value: 0.70710695
      objectReference: {fileID: 0}
    - target: {fileID: 400004, guid: 161053c6d66bd2b4b8d427f9722fabfe, type: 3}
      propertyPath: m_LocalRotation.y
      value: 0
      objectReference: {fileID: 0}
    - target: {fileID: 400004, guid: 161053c6d66bd2b4b8d427f9722fabfe, type: 3}
      propertyPath: m_LocalRotation.z
      value: 0
      objectReference: {fileID: 0}
    - target: {fileID: 400004, guid: 161053c6d66bd2b4b8d427f9722fabfe, type: 3}
      propertyPath: m_LocalRotation.w
      value: 0.70710665
      objectReference: {fileID: 0}
    - target: {fileID: 400004, guid: 161053c6d66bd2b4b8d427f9722fabfe, type: 3}
      propertyPath: m_RootOrder
      value: 9
      objectReference: {fileID: 0}
    m_RemovedComponents: []
  m_SourcePrefab: {fileID: 100100000, guid: 161053c6d66bd2b4b8d427f9722fabfe, type: 3}
--- !u!1001 &875703975
PrefabInstance:
  m_ObjectHideFlags: 0
  serializedVersion: 2
  m_Modification:
    m_TransformParent: {fileID: 0}
    m_Modifications:
    - target: {fileID: 400000, guid: 831b6f9a6c276a2459aa9469f037575a, type: 3}
      propertyPath: m_LocalPosition.x
      value: 3.62
      objectReference: {fileID: 0}
    - target: {fileID: 400000, guid: 831b6f9a6c276a2459aa9469f037575a, type: 3}
      propertyPath: m_LocalPosition.y
      value: 3.67
      objectReference: {fileID: 0}
    - target: {fileID: 400000, guid: 831b6f9a6c276a2459aa9469f037575a, type: 3}
      propertyPath: m_LocalPosition.z
      value: -1.35
      objectReference: {fileID: 0}
    - target: {fileID: 400000, guid: 831b6f9a6c276a2459aa9469f037575a, type: 3}
      propertyPath: m_LocalRotation.x
      value: -0.707106
      objectReference: {fileID: 0}
    - target: {fileID: 400000, guid: 831b6f9a6c276a2459aa9469f037575a, type: 3}
      propertyPath: m_LocalRotation.y
      value: 0
      objectReference: {fileID: 0}
    - target: {fileID: 400000, guid: 831b6f9a6c276a2459aa9469f037575a, type: 3}
      propertyPath: m_LocalRotation.z
      value: 0
      objectReference: {fileID: 0}
    - target: {fileID: 400000, guid: 831b6f9a6c276a2459aa9469f037575a, type: 3}
      propertyPath: m_LocalRotation.w
      value: 0.7071076
      objectReference: {fileID: 0}
    - target: {fileID: 400000, guid: 831b6f9a6c276a2459aa9469f037575a, type: 3}
      propertyPath: m_RootOrder
      value: 12
      objectReference: {fileID: 0}
    m_RemovedComponents: []
  m_SourcePrefab: {fileID: 100100000, guid: 831b6f9a6c276a2459aa9469f037575a, type: 3}
--- !u!1001 &929204282
PrefabInstance:
  m_ObjectHideFlags: 0
  serializedVersion: 2
  m_Modification:
    m_TransformParent: {fileID: 0}
    m_Modifications:
    - target: {fileID: 400000, guid: 4eaf9f0e6662ac942b1bf69ba6213278, type: 3}
      propertyPath: m_LocalPosition.x
      value: 15.9
      objectReference: {fileID: 0}
    - target: {fileID: 400000, guid: 4eaf9f0e6662ac942b1bf69ba6213278, type: 3}
      propertyPath: m_LocalPosition.y
      value: 1
      objectReference: {fileID: 0}
    - target: {fileID: 400000, guid: 4eaf9f0e6662ac942b1bf69ba6213278, type: 3}
      propertyPath: m_LocalPosition.z
      value: 5.44
      objectReference: {fileID: 0}
    - target: {fileID: 400000, guid: 4eaf9f0e6662ac942b1bf69ba6213278, type: 3}
      propertyPath: m_LocalRotation.x
      value: -0.0000010445195
      objectReference: {fileID: 0}
    - target: {fileID: 400000, guid: 4eaf9f0e6662ac942b1bf69ba6213278, type: 3}
      propertyPath: m_LocalRotation.y
      value: -0.38268292
      objectReference: {fileID: 0}
    - target: {fileID: 400000, guid: 4eaf9f0e6662ac942b1bf69ba6213278, type: 3}
      propertyPath: m_LocalRotation.z
      value: -0.00000043265348
      objectReference: {fileID: 0}
    - target: {fileID: 400000, guid: 4eaf9f0e6662ac942b1bf69ba6213278, type: 3}
      propertyPath: m_LocalRotation.w
      value: 0.92387974
      objectReference: {fileID: 0}
    - target: {fileID: 400000, guid: 4eaf9f0e6662ac942b1bf69ba6213278, type: 3}
      propertyPath: m_RootOrder
      value: 15
      objectReference: {fileID: 0}
    m_RemovedComponents: []
  m_SourcePrefab: {fileID: 100100000, guid: 4eaf9f0e6662ac942b1bf69ba6213278, type: 3}
--- !u!1001 &936657255
PrefabInstance:
  m_ObjectHideFlags: 0
  serializedVersion: 2
  m_Modification:
    m_TransformParent: {fileID: 0}
    m_Modifications:
    - target: {fileID: 400000, guid: 0c35865df47e37a4a8cf5bda1cbb5992, type: 3}
      propertyPath: m_LocalPosition.x
      value: 13.45
      objectReference: {fileID: 0}
    - target: {fileID: 400000, guid: 0c35865df47e37a4a8cf5bda1cbb5992, type: 3}
      propertyPath: m_LocalPosition.y
      value: 1
      objectReference: {fileID: 0}
    - target: {fileID: 400000, guid: 0c35865df47e37a4a8cf5bda1cbb5992, type: 3}
      propertyPath: m_LocalPosition.z
      value: 2.39
      objectReference: {fileID: 0}
    - target: {fileID: 400000, guid: 0c35865df47e37a4a8cf5bda1cbb5992, type: 3}
      propertyPath: m_LocalRotation.x
      value: -0.0000010445195
      objectReference: {fileID: 0}
    - target: {fileID: 400000, guid: 0c35865df47e37a4a8cf5bda1cbb5992, type: 3}
      propertyPath: m_LocalRotation.y
      value: -0.38268292
      objectReference: {fileID: 0}
    - target: {fileID: 400000, guid: 0c35865df47e37a4a8cf5bda1cbb5992, type: 3}
      propertyPath: m_LocalRotation.z
      value: -0.00000043265345
      objectReference: {fileID: 0}
    - target: {fileID: 400000, guid: 0c35865df47e37a4a8cf5bda1cbb5992, type: 3}
      propertyPath: m_LocalRotation.w
      value: 0.92387974
      objectReference: {fileID: 0}
    - target: {fileID: 400000, guid: 0c35865df47e37a4a8cf5bda1cbb5992, type: 3}
      propertyPath: m_RootOrder
      value: 14
      objectReference: {fileID: 0}
    m_RemovedComponents: []
  m_SourcePrefab: {fileID: 100100000, guid: 0c35865df47e37a4a8cf5bda1cbb5992, type: 3}
--- !u!1001 &981299902
PrefabInstance:
  m_ObjectHideFlags: 0
  serializedVersion: 2
  m_Modification:
    m_TransformParent: {fileID: 0}
    m_Modifications:
    - target: {fileID: 400002, guid: 82b8442c24e66214e943b28ecfa970f9, type: 3}
      propertyPath: m_LocalPosition.x
      value: 11.439913
      objectReference: {fileID: 0}
    - target: {fileID: 400002, guid: 82b8442c24e66214e943b28ecfa970f9, type: 3}
      propertyPath: m_LocalPosition.y
      value: 1.591
      objectReference: {fileID: 0}
    - target: {fileID: 400002, guid: 82b8442c24e66214e943b28ecfa970f9, type: 3}
      propertyPath: m_LocalPosition.z
      value: -14.048
      objectReference: {fileID: 0}
    - target: {fileID: 400002, guid: 82b8442c24e66214e943b28ecfa970f9, type: 3}
      propertyPath: m_LocalRotation.x
      value: -0.0000011305796
      objectReference: {fileID: 0}
    - target: {fileID: 400002, guid: 82b8442c24e66214e943b28ecfa970f9, type: 3}
      propertyPath: m_LocalRotation.y
      value: 0
      objectReference: {fileID: 0}
    - target: {fileID: 400002, guid: 82b8442c24e66214e943b28ecfa970f9, type: 3}
      propertyPath: m_LocalRotation.z
      value: 0
      objectReference: {fileID: 0}
    - target: {fileID: 400002, guid: 82b8442c24e66214e943b28ecfa970f9, type: 3}
      propertyPath: m_LocalRotation.w
      value: 1
      objectReference: {fileID: 0}
    - target: {fileID: 400002, guid: 82b8442c24e66214e943b28ecfa970f9, type: 3}
      propertyPath: m_RootOrder
      value: 1
      objectReference: {fileID: 0}
    m_RemovedComponents: []
  m_SourcePrefab: {fileID: 100100000, guid: 82b8442c24e66214e943b28ecfa970f9, type: 3}
--- !u!1001 &1083055003
PrefabInstance:
  m_ObjectHideFlags: 0
  serializedVersion: 2
  m_Modification:
    m_TransformParent: {fileID: 0}
    m_Modifications:
    - target: {fileID: 400000, guid: 9955a48b1a348f641b96c9b1848e3592, type: 3}
      propertyPath: m_LocalPosition.x
      value: 13.266487
      objectReference: {fileID: 0}
    - target: {fileID: 400000, guid: 9955a48b1a348f641b96c9b1848e3592, type: 3}
      propertyPath: m_LocalPosition.y
      value: 1
      objectReference: {fileID: 0}
    - target: {fileID: 400000, guid: 9955a48b1a348f641b96c9b1848e3592, type: 3}
      propertyPath: m_LocalPosition.z
      value: -8.5
      objectReference: {fileID: 0}
    - target: {fileID: 400000, guid: 9955a48b1a348f641b96c9b1848e3592, type: 3}
      propertyPath: m_LocalRotation.x
      value: -0.0000011305796
      objectReference: {fileID: 0}
    - target: {fileID: 400000, guid: 9955a48b1a348f641b96c9b1848e3592, type: 3}
      propertyPath: m_LocalRotation.y
      value: 0
      objectReference: {fileID: 0}
    - target: {fileID: 400000, guid: 9955a48b1a348f641b96c9b1848e3592, type: 3}
      propertyPath: m_LocalRotation.z
      value: 0
      objectReference: {fileID: 0}
    - target: {fileID: 400000, guid: 9955a48b1a348f641b96c9b1848e3592, type: 3}
      propertyPath: m_LocalRotation.w
      value: 1
      objectReference: {fileID: 0}
    - target: {fileID: 400000, guid: 9955a48b1a348f641b96c9b1848e3592, type: 3}
      propertyPath: m_RootOrder
      value: 11
      objectReference: {fileID: 0}
    m_RemovedComponents: []
  m_SourcePrefab: {fileID: 100100000, guid: 9955a48b1a348f641b96c9b1848e3592, type: 3}
--- !u!1 &1116949672
GameObject:
  m_ObjectHideFlags: 0
  m_CorrespondingSourceObject: {fileID: 0}
  m_PrefabInstance: {fileID: 0}
  m_PrefabAsset: {fileID: 0}
  serializedVersion: 6
  m_Component:
  - component: {fileID: 1116949673}
  m_Layer: 0
  m_Name: Flares
  m_TagString: Untagged
  m_Icon: {fileID: 0}
  m_NavMeshLayer: 0
  m_StaticEditorFlags: 0
  m_IsActive: 1
--- !u!4 &1116949673
Transform:
  m_ObjectHideFlags: 0
  m_CorrespondingSourceObject: {fileID: 0}
  m_PrefabInstance: {fileID: 0}
  m_PrefabAsset: {fileID: 0}
  m_GameObject: {fileID: 1116949672}
  m_LocalRotation: {x: 0, y: 0, z: 0, w: 1}
  m_LocalPosition: {x: 6.65, y: 1, z: -1.54}
  m_LocalScale: {x: 1, y: 1, z: 0.81858504}
  m_Children:
  - {fileID: 715833425}
  - {fileID: 490272860}
  - {fileID: 346526660}
  m_Father: {fileID: 0}
  m_RootOrder: 18
  m_LocalEulerAnglesHint: {x: 0, y: 0, z: 0}
--- !u!1001 &1167047979
PrefabInstance:
  m_ObjectHideFlags: 0
  serializedVersion: 2
  m_Modification:
    m_TransformParent: {fileID: 0}
    m_Modifications:
    - target: {fileID: 22434116, guid: ef9ed1b79df4370459beb69434c0e6ef, type: 3}
      propertyPath: m_LocalPosition.x
      value: 0
      objectReference: {fileID: 0}
    - target: {fileID: 22434116, guid: ef9ed1b79df4370459beb69434c0e6ef, type: 3}
      propertyPath: m_LocalPosition.y
      value: 0
      objectReference: {fileID: 0}
    - target: {fileID: 22434116, guid: ef9ed1b79df4370459beb69434c0e6ef, type: 3}
      propertyPath: m_LocalPosition.z
      value: 0
      objectReference: {fileID: 0}
    - target: {fileID: 22434116, guid: ef9ed1b79df4370459beb69434c0e6ef, type: 3}
      propertyPath: m_LocalRotation.x
      value: 0
      objectReference: {fileID: 0}
    - target: {fileID: 22434116, guid: ef9ed1b79df4370459beb69434c0e6ef, type: 3}
      propertyPath: m_LocalRotation.y
      value: 0
      objectReference: {fileID: 0}
    - target: {fileID: 22434116, guid: ef9ed1b79df4370459beb69434c0e6ef, type: 3}
      propertyPath: m_LocalRotation.z
      value: 0
      objectReference: {fileID: 0}
    - target: {fileID: 22434116, guid: ef9ed1b79df4370459beb69434c0e6ef, type: 3}
      propertyPath: m_LocalRotation.w
      value: 1
      objectReference: {fileID: 0}
    - target: {fileID: 22434116, guid: ef9ed1b79df4370459beb69434c0e6ef, type: 3}
      propertyPath: m_RootOrder
      value: 25
      objectReference: {fileID: 0}
    - target: {fileID: 22434116, guid: ef9ed1b79df4370459beb69434c0e6ef, type: 3}
      propertyPath: m_AnchoredPosition.x
      value: 0
      objectReference: {fileID: 0}
    - target: {fileID: 22434116, guid: ef9ed1b79df4370459beb69434c0e6ef, type: 3}
      propertyPath: m_AnchoredPosition.y
      value: 0
      objectReference: {fileID: 0}
    - target: {fileID: 22434116, guid: ef9ed1b79df4370459beb69434c0e6ef, type: 3}
      propertyPath: m_SizeDelta.x
      value: 0
      objectReference: {fileID: 0}
    - target: {fileID: 22434116, guid: ef9ed1b79df4370459beb69434c0e6ef, type: 3}
      propertyPath: m_SizeDelta.y
      value: 0
      objectReference: {fileID: 0}
    - target: {fileID: 22434116, guid: ef9ed1b79df4370459beb69434c0e6ef, type: 3}
      propertyPath: m_AnchorMin.x
      value: 0
      objectReference: {fileID: 0}
    - target: {fileID: 22434116, guid: ef9ed1b79df4370459beb69434c0e6ef, type: 3}
      propertyPath: m_AnchorMin.y
      value: 0
      objectReference: {fileID: 0}
    - target: {fileID: 22434116, guid: ef9ed1b79df4370459beb69434c0e6ef, type: 3}
      propertyPath: m_AnchorMax.x
      value: 0
      objectReference: {fileID: 0}
    - target: {fileID: 22434116, guid: ef9ed1b79df4370459beb69434c0e6ef, type: 3}
      propertyPath: m_AnchorMax.y
      value: 0
      objectReference: {fileID: 0}
    - target: {fileID: 22434116, guid: ef9ed1b79df4370459beb69434c0e6ef, type: 3}
      propertyPath: m_Pivot.x
      value: 0
      objectReference: {fileID: 0}
    - target: {fileID: 22434116, guid: ef9ed1b79df4370459beb69434c0e6ef, type: 3}
      propertyPath: m_Pivot.y
      value: 0
      objectReference: {fileID: 0}
    m_RemovedComponents: []
  m_SourcePrefab: {fileID: 100100000, guid: ef9ed1b79df4370459beb69434c0e6ef, type: 3}
--- !u!1 &1169470125
GameObject:
  m_ObjectHideFlags: 0
  m_CorrespondingSourceObject: {fileID: 0}
  m_PrefabInstance: {fileID: 0}
  m_PrefabAsset: {fileID: 0}
  serializedVersion: 6
  m_Component:
  - component: {fileID: 1169470127}
  - component: {fileID: 1169470126}
  m_Layer: 0
  m_Name: Point light
  m_TagString: Untagged
  m_Icon: {fileID: 0}
  m_NavMeshLayer: 0
  m_StaticEditorFlags: 0
  m_IsActive: 1
--- !u!108 &1169470126
Light:
  m_ObjectHideFlags: 0
  m_CorrespondingSourceObject: {fileID: 0}
  m_PrefabInstance: {fileID: 0}
  m_PrefabAsset: {fileID: 0}
  m_GameObject: {fileID: 1169470125}
  m_Enabled: 1
  serializedVersion: 9
  m_Type: 2
  m_Color: {r: 0.28676468, g: 0.73438144, b: 1, a: 1}
  m_Intensity: 8
  m_Range: 6
  m_SpotAngle: 30
  m_InnerSpotAngle: 21.80208
  m_CookieSize: 10
  m_Shadows:
    m_Type: 0
    m_Resolution: -1
    m_CustomResolution: -1
    m_Strength: 1
    m_Bias: 0.05
    m_NormalBias: 0.4
    m_NearPlane: 0.2
    m_CullingMatrixOverride:
      e00: 1
      e01: 0
      e02: 0
      e03: 0
      e10: 0
      e11: 1
      e12: 0
      e13: 0
      e20: 0
      e21: 0
      e22: 1
      e23: 0
      e30: 0
      e31: 0
      e32: 0
      e33: 1
    m_UseCullingMatrixOverride: 0
  m_Cookie: {fileID: 0}
  m_DrawHalo: 0
  m_Flare: {fileID: 0}
  m_RenderMode: 0
  m_CullingMask:
    serializedVersion: 2
    m_Bits: 4294967295
  m_RenderingLayerMask: 1
  m_Lightmapping: 1
  m_LightShadowCasterMode: 0
  m_AreaSize: {x: 1, y: 1}
  m_BounceIntensity: 1
  m_ColorTemperature: 6570
  m_UseColorTemperature: 0
  m_BoundingSphereOverride: {x: 0, y: 0, z: 0, w: 0}
  m_UseBoundingSphereOverride: 0
  m_ShadowRadius: 0
  m_ShadowAngle: 0
--- !u!4 &1169470127
Transform:
  m_ObjectHideFlags: 0
  m_CorrespondingSourceObject: {fileID: 0}
  m_PrefabInstance: {fileID: 0}
  m_PrefabAsset: {fileID: 0}
  m_GameObject: {fileID: 1169470125}
  m_LocalRotation: {x: 0, y: 0, z: 0, w: 1}
  m_LocalPosition: {x: 15.558125, y: 1.5, z: -3.9348695}
  m_LocalScale: {x: 1, y: 1, z: 1}
  m_Children: []
  m_Father: {fileID: 0}
  m_RootOrder: 24
  m_LocalEulerAnglesHint: {x: 0, y: 0, z: 0}
--- !u!1 &1332477893
GameObject:
  m_ObjectHideFlags: 0
  m_CorrespondingSourceObject: {fileID: 0}
  m_PrefabInstance: {fileID: 0}
  m_PrefabAsset: {fileID: 0}
  serializedVersion: 6
  m_Component:
  - component: {fileID: 1332477895}
  - component: {fileID: 1332477894}
  m_Layer: 0
  m_Name: Point light
  m_TagString: Untagged
  m_Icon: {fileID: 0}
  m_NavMeshLayer: 0
  m_StaticEditorFlags: 0
  m_IsActive: 1
--- !u!108 &1332477894
Light:
  m_ObjectHideFlags: 0
  m_CorrespondingSourceObject: {fileID: 0}
  m_PrefabInstance: {fileID: 0}
  m_PrefabAsset: {fileID: 0}
  m_GameObject: {fileID: 1332477893}
  m_Enabled: 1
  serializedVersion: 9
  m_Type: 2
  m_Color: {r: 0.28676468, g: 0.73438144, b: 1, a: 1}
  m_Intensity: 8
  m_Range: 6
  m_SpotAngle: 30
  m_InnerSpotAngle: 21.80208
  m_CookieSize: 10
  m_Shadows:
    m_Type: 0
    m_Resolution: -1
    m_CustomResolution: -1
    m_Strength: 1
    m_Bias: 0.05
    m_NormalBias: 0.4
    m_NearPlane: 0.2
    m_CullingMatrixOverride:
      e00: 1
      e01: 0
      e02: 0
      e03: 0
      e10: 0
      e11: 1
      e12: 0
      e13: 0
      e20: 0
      e21: 0
      e22: 1
      e23: 0
      e30: 0
      e31: 0
      e32: 0
      e33: 1
    m_UseCullingMatrixOverride: 0
  m_Cookie: {fileID: 0}
  m_DrawHalo: 0
  m_Flare: {fileID: 0}
  m_RenderMode: 0
  m_CullingMask:
    serializedVersion: 2
    m_Bits: 4294967295
  m_RenderingLayerMask: 1
  m_Lightmapping: 1
  m_LightShadowCasterMode: 0
  m_AreaSize: {x: 1, y: 1}
  m_BounceIntensity: 1
  m_ColorTemperature: 6570
  m_UseColorTemperature: 0
  m_BoundingSphereOverride: {x: 0, y: 0, z: 0, w: 0}
  m_UseBoundingSphereOverride: 0
  m_ShadowRadius: 0
  m_ShadowAngle: 0
--- !u!4 &1332477895
Transform:
  m_ObjectHideFlags: 0
  m_CorrespondingSourceObject: {fileID: 0}
  m_PrefabInstance: {fileID: 0}
  m_PrefabAsset: {fileID: 0}
  m_GameObject: {fileID: 1332477893}
  m_LocalRotation: {x: 0, y: 0, z: 0, w: 1}
  m_LocalPosition: {x: 13.883255, y: 1.5, z: -8.5}
  m_LocalScale: {x: 1, y: 1, z: 1}
  m_Children: []
  m_Father: {fileID: 0}
  m_RootOrder: 23
  m_LocalEulerAnglesHint: {x: 0, y: 0, z: 0}
--- !u!1 &1340984878
GameObject:
  m_ObjectHideFlags: 0
  m_CorrespondingSourceObject: {fileID: 0}
  m_PrefabInstance: {fileID: 0}
  m_PrefabAsset: {fileID: 0}
  serializedVersion: 6
  m_Component:
  - component: {fileID: 1340984882}
  - component: {fileID: 1340984881}
  - component: {fileID: 1340984880}
  - component: {fileID: 1340984879}
  m_Layer: 0
  m_Name: Plane
  m_TagString: Untagged
  m_Icon: {fileID: 0}
  m_NavMeshLayer: 0
  m_StaticEditorFlags: 0
  m_IsActive: 1
--- !u!23 &1340984879
MeshRenderer:
  m_ObjectHideFlags: 0
  m_CorrespondingSourceObject: {fileID: 0}
  m_PrefabInstance: {fileID: 0}
  m_PrefabAsset: {fileID: 0}
  m_GameObject: {fileID: 1340984878}
  m_Enabled: 1
  m_CastShadows: 1
  m_ReceiveShadows: 1
  m_DynamicOccludee: 1
  m_MotionVectors: 1
  m_LightProbeUsage: 0
  m_ReflectionProbeUsage: 1
  m_RenderingLayerMask: 1
  m_RendererPriority: 0
  m_Materials:
  - {fileID: 2100000, guid: 2c043007b4d31c340a6ccf15136ec3b1, type: 2}
  m_StaticBatchInfo:
    firstSubMesh: 0
    subMeshCount: 0
  m_StaticBatchRoot: {fileID: 0}
  m_ProbeAnchor: {fileID: 0}
  m_LightProbeVolumeOverride: {fileID: 0}
  m_ScaleInLightmap: 1
  m_ReceiveGI: 1
  m_PreserveUVs: 0
  m_IgnoreNormalsForChartDetection: 0
  m_ImportantGI: 0
  m_StitchLightmapSeams: 1
  m_SelectedEditorRenderState: 3
  m_MinimumChartSize: 4
  m_AutoUVMaxDistance: 0.5
  m_AutoUVMaxAngle: 89
  m_LightmapParameters: {fileID: 0}
  m_SortingLayerID: 0
  m_SortingLayer: 0
  m_SortingOrder: 0
--- !u!64 &1340984880
MeshCollider:
  m_ObjectHideFlags: 0
  m_CorrespondingSourceObject: {fileID: 0}
  m_PrefabInstance: {fileID: 0}
  m_PrefabAsset: {fileID: 0}
  m_GameObject: {fileID: 1340984878}
  m_Material: {fileID: 0}
  m_IsTrigger: 0
  m_Enabled: 1
  serializedVersion: 3
  m_Convex: 0
  m_CookingOptions: 14
  m_Mesh: {fileID: 10209, guid: 0000000000000000e000000000000000, type: 0}
--- !u!33 &1340984881
MeshFilter:
  m_ObjectHideFlags: 0
  m_CorrespondingSourceObject: {fileID: 0}
  m_PrefabInstance: {fileID: 0}
  m_PrefabAsset: {fileID: 0}
  m_GameObject: {fileID: 1340984878}
  m_Mesh: {fileID: 10209, guid: 0000000000000000e000000000000000, type: 0}
--- !u!4 &1340984882
Transform:
  m_ObjectHideFlags: 0
  m_CorrespondingSourceObject: {fileID: 0}
  m_PrefabInstance: {fileID: 0}
  m_PrefabAsset: {fileID: 0}
  m_GameObject: {fileID: 1340984878}
  m_LocalRotation: {x: 0, y: 0, z: 0, w: 1}
  m_LocalPosition: {x: 0, y: 0, z: 0}
  m_LocalScale: {x: 100, y: 100, z: 100}
  m_Children: []
  m_Father: {fileID: 0}
  m_RootOrder: 7
  m_LocalEulerAnglesHint: {x: 0, y: 0, z: 0}
--- !u!1001 &1349708121
PrefabInstance:
  m_ObjectHideFlags: 0
  serializedVersion: 2
  m_Modification:
    m_TransformParent: {fileID: 1116949673}
    m_Modifications:
    - target: {fileID: 400006, guid: b171dbb60a93c054b96e5cad113ede75, type: 3}
      propertyPath: m_LocalPosition.x
      value: -3.51
      objectReference: {fileID: 0}
    - target: {fileID: 400006, guid: b171dbb60a93c054b96e5cad113ede75, type: 3}
      propertyPath: m_LocalPosition.y
      value: 0
      objectReference: {fileID: 0}
    - target: {fileID: 400006, guid: b171dbb60a93c054b96e5cad113ede75, type: 3}
      propertyPath: m_LocalPosition.z
      value: -6.8
      objectReference: {fileID: 0}
    - target: {fileID: 400006, guid: b171dbb60a93c054b96e5cad113ede75, type: 3}
      propertyPath: m_LocalRotation.x
      value: -0.7071068
      objectReference: {fileID: 0}
    - target: {fileID: 400006, guid: b171dbb60a93c054b96e5cad113ede75, type: 3}
      propertyPath: m_LocalRotation.y
      value: 0
      objectReference: {fileID: 0}
    - target: {fileID: 400006, guid: b171dbb60a93c054b96e5cad113ede75, type: 3}
      propertyPath: m_LocalRotation.z
      value: 0
      objectReference: {fileID: 0}
    - target: {fileID: 400006, guid: b171dbb60a93c054b96e5cad113ede75, type: 3}
      propertyPath: m_LocalRotation.w
      value: 0.7071068
      objectReference: {fileID: 0}
    - target: {fileID: 400006, guid: b171dbb60a93c054b96e5cad113ede75, type: 3}
      propertyPath: m_RootOrder
      value: 0
      objectReference: {fileID: 0}
    m_RemovedComponents: []
  m_SourcePrefab: {fileID: 100100000, guid: b171dbb60a93c054b96e5cad113ede75, type: 3}
--- !u!1001 &1540616291
PrefabInstance:
  m_ObjectHideFlags: 0
  serializedVersion: 2
  m_Modification:
    m_TransformParent: {fileID: 0}
    m_Modifications:
    - target: {fileID: 400000, guid: 50a6498d8dc4c7041938d048edb7f324, type: 3}
      propertyPath: m_LocalPosition.x
      value: 8.02
      objectReference: {fileID: 0}
    - target: {fileID: 400000, guid: 50a6498d8dc4c7041938d048edb7f324, type: 3}
      propertyPath: m_LocalPosition.y
      value: 1.13
      objectReference: {fileID: 0}
    - target: {fileID: 400000, guid: 50a6498d8dc4c7041938d048edb7f324, type: 3}
      propertyPath: m_LocalPosition.z
      value: -1.85
      objectReference: {fileID: 0}
    - target: {fileID: 400000, guid: 50a6498d8dc4c7041938d048edb7f324, type: 3}
      propertyPath: m_LocalRotation.x
      value: -0.0000010449708
      objectReference: {fileID: 0}
    - target: {fileID: 400000, guid: 50a6498d8dc4c7041938d048edb7f324, type: 3}
      propertyPath: m_LocalRotation.y
      value: -0.38171822
      objectReference: {fileID: 0}
    - target: {fileID: 400000, guid: 50a6498d8dc4c7041938d048edb7f324, type: 3}
      propertyPath: m_LocalRotation.z
      value: 0.00000043156282
      objectReference: {fileID: 0}
    - target: {fileID: 400000, guid: 50a6498d8dc4c7041938d048edb7f324, type: 3}
      propertyPath: m_LocalRotation.w
      value: 0.9242788
      objectReference: {fileID: 0}
    - target: {fileID: 400000, guid: 50a6498d8dc4c7041938d048edb7f324, type: 3}
      propertyPath: m_RootOrder
      value: 8
      objectReference: {fileID: 0}
    - target: {fileID: 400000, guid: 50a6498d8dc4c7041938d048edb7f324, type: 3}
      propertyPath: m_LocalEulerAnglesHint.x
      value: -0.0001
      objectReference: {fileID: 0}
    - target: {fileID: 400000, guid: 50a6498d8dc4c7041938d048edb7f324, type: 3}
      propertyPath: m_LocalEulerAnglesHint.y
      value: -44.8803
      objectReference: {fileID: 0}
    - target: {fileID: 400000, guid: 50a6498d8dc4c7041938d048edb7f324, type: 3}
      propertyPath: m_LocalEulerAnglesHint.z
      value: 0.0001
      objectReference: {fileID: 0}
    m_RemovedComponents: []
  m_SourcePrefab: {fileID: 100100000, guid: 50a6498d8dc4c7041938d048edb7f324, type: 3}
--- !u!1001 &1670277352
PrefabInstance:
  m_ObjectHideFlags: 0
  serializedVersion: 2
  m_Modification:
    m_TransformParent: {fileID: 0}
    m_Modifications:
    - target: {fileID: 400000, guid: 7002b805b4eada44a9740d3c1eaf1d53, type: 3}
      propertyPath: m_LocalPosition.x
      value: 10.895119
      objectReference: {fileID: 0}
    - target: {fileID: 400000, guid: 7002b805b4eada44a9740d3c1eaf1d53, type: 3}
      propertyPath: m_LocalPosition.y
      value: 1
      objectReference: {fileID: 0}
    - target: {fileID: 400000, guid: 7002b805b4eada44a9740d3c1eaf1d53, type: 3}
      propertyPath: m_LocalPosition.z
      value: -10
      objectReference: {fileID: 0}
    - target: {fileID: 400000, guid: 7002b805b4eada44a9740d3c1eaf1d53, type: 3}
      propertyPath: m_LocalRotation.x
      value: -0.0000011305796
      objectReference: {fileID: 0}
    - target: {fileID: 400000, guid: 7002b805b4eada44a9740d3c1eaf1d53, type: 3}
      propertyPath: m_LocalRotation.y
      value: 0
      objectReference: {fileID: 0}
    - target: {fileID: 400000, guid: 7002b805b4eada44a9740d3c1eaf1d53, type: 3}
      propertyPath: m_LocalRotation.z
      value: 0
      objectReference: {fileID: 0}
    - target: {fileID: 400000, guid: 7002b805b4eada44a9740d3c1eaf1d53, type: 3}
      propertyPath: m_LocalRotation.w
      value: 1
      objectReference: {fileID: 0}
    - target: {fileID: 400000, guid: 7002b805b4eada44a9740d3c1eaf1d53, type: 3}
      propertyPath: m_RootOrder
      value: 5
      objectReference: {fileID: 0}
    m_RemovedComponents: []
  m_SourcePrefab: {fileID: 100100000, guid: 7002b805b4eada44a9740d3c1eaf1d53, type: 3}
--- !u!1001 &1689656220
PrefabInstance:
  m_ObjectHideFlags: 0
  serializedVersion: 2
  m_Modification:
    m_TransformParent: {fileID: 0}
    m_Modifications:
    - target: {fileID: 400000, guid: 452ea01263a6f7b4b85471afc8f73eb4, type: 3}
      propertyPath: m_LocalPosition.x
      value: 4.74
      objectReference: {fileID: 0}
    - target: {fileID: 400000, guid: 452ea01263a6f7b4b85471afc8f73eb4, type: 3}
      propertyPath: m_LocalPosition.y
      value: 1.64
      objectReference: {fileID: 0}
    - target: {fileID: 400000, guid: 452ea01263a6f7b4b85471afc8f73eb4, type: 3}
      propertyPath: m_LocalPosition.z
      value: 1.44
      objectReference: {fileID: 0}
    - target: {fileID: 400000, guid: 452ea01263a6f7b4b85471afc8f73eb4, type: 3}
      propertyPath: m_LocalRotation.x
      value: -0.0000011305796
      objectReference: {fileID: 0}
    - target: {fileID: 400000, guid: 452ea01263a6f7b4b85471afc8f73eb4, type: 3}
      propertyPath: m_LocalRotation.y
      value: 0
      objectReference: {fileID: 0}
    - target: {fileID: 400000, guid: 452ea01263a6f7b4b85471afc8f73eb4, type: 3}
      propertyPath: m_LocalRotation.z
      value: 0
      objectReference: {fileID: 0}
    - target: {fileID: 400000, guid: 452ea01263a6f7b4b85471afc8f73eb4, type: 3}
      propertyPath: m_LocalRotation.w
      value: 1
      objectReference: {fileID: 0}
    - target: {fileID: 400000, guid: 452ea01263a6f7b4b85471afc8f73eb4, type: 3}
      propertyPath: m_RootOrder
      value: 0
      objectReference: {fileID: 0}
    m_RemovedComponents: []
  m_SourcePrefab: {fileID: 100100000, guid: 452ea01263a6f7b4b85471afc8f73eb4, type: 3}
--- !u!1001 &1744142145
PrefabInstance:
  m_ObjectHideFlags: 0
  serializedVersion: 2
  m_Modification:
    m_TransformParent: {fileID: 1116949673}
    m_Modifications:
    - target: {fileID: 400000, guid: 523572be97715d44f89441e6b8fc12ef, type: 3}
      propertyPath: m_LocalPosition.x
      value: -3.2
      objectReference: {fileID: 0}
    - target: {fileID: 400000, guid: 523572be97715d44f89441e6b8fc12ef, type: 3}
      propertyPath: m_LocalPosition.y
      value: 0
      objectReference: {fileID: 0}
    - target: {fileID: 400000, guid: 523572be97715d44f89441e6b8fc12ef, type: 3}
      propertyPath: m_LocalPosition.z
      value: -3.36
      objectReference: {fileID: 0}
    - target: {fileID: 400000, guid: 523572be97715d44f89441e6b8fc12ef, type: 3}
      propertyPath: m_LocalRotation.x
      value: -0.7071068
      objectReference: {fileID: 0}
    - target: {fileID: 400000, guid: 523572be97715d44f89441e6b8fc12ef, type: 3}
      propertyPath: m_LocalRotation.y
      value: 0
      objectReference: {fileID: 0}
    - target: {fileID: 400000, guid: 523572be97715d44f89441e6b8fc12ef, type: 3}
      propertyPath: m_LocalRotation.z
      value: 0
      objectReference: {fileID: 0}
    - target: {fileID: 400000, guid: 523572be97715d44f89441e6b8fc12ef, type: 3}
      propertyPath: m_LocalRotation.w
      value: 0.7071068
      objectReference: {fileID: 0}
    - target: {fileID: 400000, guid: 523572be97715d44f89441e6b8fc12ef, type: 3}
      propertyPath: m_RootOrder
      value: 2
      objectReference: {fileID: 0}
    m_RemovedComponents: []
  m_SourcePrefab: {fileID: 100100000, guid: 523572be97715d44f89441e6b8fc12ef, type: 3}
--- !u!1001 &1840190210
PrefabInstance:
  m_ObjectHideFlags: 0
  serializedVersion: 2
  m_Modification:
    m_TransformParent: {fileID: 0}
    m_Modifications:
    - target: {fileID: 400000, guid: 9dbd5b4da29c8e2418d9a942fbb87d8f, type: 3}
      propertyPath: m_LocalPosition.x
      value: -14.459237
      objectReference: {fileID: 0}
    - target: {fileID: 400000, guid: 9dbd5b4da29c8e2418d9a942fbb87d8f, type: 3}
      propertyPath: m_LocalPosition.y
      value: 4.3940144
      objectReference: {fileID: 0}
    - target: {fileID: 400000, guid: 9dbd5b4da29c8e2418d9a942fbb87d8f, type: 3}
      propertyPath: m_LocalPosition.z
      value: 0
      objectReference: {fileID: 0}
    - target: {fileID: 400000, guid: 9dbd5b4da29c8e2418d9a942fbb87d8f, type: 3}
      propertyPath: m_LocalRotation.x
      value: 0
      objectReference: {fileID: 0}
    - target: {fileID: 400000, guid: 9dbd5b4da29c8e2418d9a942fbb87d8f, type: 3}
      propertyPath: m_LocalRotation.y
      value: 0.0000011165922
      objectReference: {fileID: 0}
    - target: {fileID: 400000, guid: 9dbd5b4da29c8e2418d9a942fbb87d8f, type: 3}
      propertyPath: m_LocalRotation.z
      value: 0
      objectReference: {fileID: 0}
    - target: {fileID: 400000, guid: 9dbd5b4da29c8e2418d9a942fbb87d8f, type: 3}
      propertyPath: m_LocalRotation.w
      value: 1
      objectReference: {fileID: 0}
    - target: {fileID: 400000, guid: 9dbd5b4da29c8e2418d9a942fbb87d8f, type: 3}
      propertyPath: m_RootMapOrder
      value: 
      objectReference: {fileID: 0}
    - target: {fileID: 400000, guid: 9dbd5b4da29c8e2418d9a942fbb87d8f, type: 3}
      propertyPath: m_RootOrder
      value: 3
      objectReference: {fileID: 0}
    m_RemovedComponents: []
  m_SourcePrefab: {fileID: 100100000, guid: 9dbd5b4da29c8e2418d9a942fbb87d8f, type: 3}
--- !u!1001 &1850615212
PrefabInstance:
  m_ObjectHideFlags: 0
  serializedVersion: 2
  m_Modification:
    m_TransformParent: {fileID: 0}
    m_Modifications:
    - target: {fileID: 400000, guid: 63b09948b44ab1a45b1a7b0e12863cb3, type: 3}
      propertyPath: m_LocalPosition.x
      value: 3.62
      objectReference: {fileID: 0}
    - target: {fileID: 400000, guid: 63b09948b44ab1a45b1a7b0e12863cb3, type: 3}
      propertyPath: m_LocalPosition.y
      value: 3.67
      objectReference: {fileID: 0}
    - target: {fileID: 400000, guid: 63b09948b44ab1a45b1a7b0e12863cb3, type: 3}
      propertyPath: m_LocalPosition.z
      value: -1.35
      objectReference: {fileID: 0}
    - target: {fileID: 400000, guid: 63b09948b44ab1a45b1a7b0e12863cb3, type: 3}
      propertyPath: m_LocalRotation.x
      value: -0.7071068
      objectReference: {fileID: 0}
    - target: {fileID: 400000, guid: 63b09948b44ab1a45b1a7b0e12863cb3, type: 3}
      propertyPath: m_LocalRotation.y
      value: 0
      objectReference: {fileID: 0}
    - target: {fileID: 400000, guid: 63b09948b44ab1a45b1a7b0e12863cb3, type: 3}
      propertyPath: m_LocalRotation.z
      value: 0
      objectReference: {fileID: 0}
    - target: {fileID: 400000, guid: 63b09948b44ab1a45b1a7b0e12863cb3, type: 3}
      propertyPath: m_LocalRotation.w
      value: 0.7071068
      objectReference: {fileID: 0}
    - target: {fileID: 400000, guid: 63b09948b44ab1a45b1a7b0e12863cb3, type: 3}
      propertyPath: m_RootOrder
      value: 2
      objectReference: {fileID: 0}
    m_RemovedComponents: []
  m_SourcePrefab: {fileID: 100100000, guid: 63b09948b44ab1a45b1a7b0e12863cb3, type: 3}
--- !u!1001 &1918713587
PrefabInstance:
  m_ObjectHideFlags: 0
  serializedVersion: 2
  m_Modification:
    m_TransformParent: {fileID: 0}
    m_Modifications:
    - target: {fileID: 400000, guid: aad798475238be4438d53805788efc8f, type: 3}
      propertyPath: m_LocalPosition.x
      value: 15.664949
      objectReference: {fileID: 0}
    - target: {fileID: 400000, guid: aad798475238be4438d53805788efc8f, type: 3}
      propertyPath: m_LocalPosition.y
      value: 1
      objectReference: {fileID: 0}
    - target: {fileID: 400000, guid: aad798475238be4438d53805788efc8f, type: 3}
      propertyPath: m_LocalPosition.z
      value: -4
      objectReference: {fileID: 0}
    - target: {fileID: 400000, guid: aad798475238be4438d53805788efc8f, type: 3}
      propertyPath: m_LocalRotation.x
      value: -0.0000011305796
      objectReference: {fileID: 0}
    - target: {fileID: 400000, guid: aad798475238be4438d53805788efc8f, type: 3}
      propertyPath: m_LocalRotation.y
      value: 0
      objectReference: {fileID: 0}
    - target: {fileID: 400000, guid: aad798475238be4438d53805788efc8f, type: 3}
      propertyPath: m_LocalRotation.z
      value: 0
      objectReference: {fileID: 0}
    - target: {fileID: 400000, guid: aad798475238be4438d53805788efc8f, type: 3}
      propertyPath: m_LocalRotation.w
      value: 1
      objectReference: {fileID: 0}
    - target: {fileID: 400000, guid: aad798475238be4438d53805788efc8f, type: 3}
      propertyPath: m_RootMapOrder
      value: 
      objectReference: {fileID: 0}
    - target: {fileID: 400000, guid: aad798475238be4438d53805788efc8f, type: 3}
      propertyPath: m_RootOrder
      value: 6
      objectReference: {fileID: 0}
    - target: {fileID: 19800000, guid: aad798475238be4438d53805788efc8f, type: 3}
      propertyPath: ColorModule.gradient.maxGradient.key1.r
      value: 0.0000
      objectReference: {fileID: 0}
    - target: {fileID: 19800000, guid: aad798475238be4438d53805788efc8f, type: 3}
      propertyPath: ColorModule.gradient.maxGradient.key2.r
      value: 0.0000
      objectReference: {fileID: 0}
    - target: {fileID: 19800000, guid: aad798475238be4438d53805788efc8f, type: 3}
      propertyPath: ColorModule.gradient.maxGradient.ctime1
      value: 65535
      objectReference: {fileID: 0}
    - target: {fileID: 19800000, guid: aad798475238be4438d53805788efc8f, type: 3}
      propertyPath: ColorModule.gradient.maxGradient.ctime2
      value: 65384
      objectReference: {fileID: 0}
    - target: {fileID: 19800000, guid: aad798475238be4438d53805788efc8f, type: 3}
      propertyPath: ColorModule.gradient.maxGradient.atime1
      value: 65535
      objectReference: {fileID: 0}
    - target: {fileID: 19800000, guid: aad798475238be4438d53805788efc8f, type: 3}
      propertyPath: ColorModule.gradient.maxGradient.m_NumColorKeys
      value: 2
      objectReference: {fileID: 0}
    - target: {fileID: 19800000, guid: aad798475238be4438d53805788efc8f, type: 3}
      propertyPath: ColorModule.gradient.maxGradient.m_NumAlphaKeys
      value: 2
      objectReference: {fileID: 0}
    - target: {fileID: 19800000, guid: aad798475238be4438d53805788efc8f, type: 3}
      propertyPath: ClampVelocityModule.enabled
      value: 1
      objectReference: {fileID: 0}
    - target: {fileID: 19800000, guid: aad798475238be4438d53805788efc8f, type: 3}
      propertyPath: ClampVelocityModule.magnitude.scalar
      value: 0
      objectReference: {fileID: 0}
    - target: {fileID: 19800000, guid: aad798475238be4438d53805788efc8f, type: 3}
      propertyPath: ClampVelocityModule.dampen
      value: 0.2
      objectReference: {fileID: 0}
    - target: {fileID: 19800000, guid: aad798475238be4438d53805788efc8f, type: 3}
      propertyPath: EmissionModule.m_BurstCount
      value: 1
      objectReference: {fileID: 0}
    - target: {fileID: 19800000, guid: aad798475238be4438d53805788efc8f, type: 3}
      propertyPath: InitialModule.startSpeed.minCurve.m_Curve.Array.data[0].value
      value: 0.36363637
      objectReference: {fileID: 0}
    - target: {fileID: 19800000, guid: aad798475238be4438d53805788efc8f, type: 3}
      propertyPath: InitialModule.startSpeed.minCurve.m_RotationOrder
      value: 0
      objectReference: {fileID: 0}
    - target: {fileID: 19800000, guid: aad798475238be4438d53805788efc8f, type: 3}
      propertyPath: InitialModule.startSpeed.scalar
      value: 11
      objectReference: {fileID: 0}
    - target: {fileID: 19800000, guid: aad798475238be4438d53805788efc8f, type: 3}
      propertyPath: InitialModule.startSpeed.maxCurve.m_Curve.Array.data[0].value
      value: 1
      objectReference: {fileID: 0}
    - target: {fileID: 19800000, guid: aad798475238be4438d53805788efc8f, type: 3}
      propertyPath: InitialModule.startSpeed.maxCurve.m_RotationOrder
      value: 0
      objectReference: {fileID: 0}
    - target: {fileID: 19800000, guid: aad798475238be4438d53805788efc8f, type: 3}
      propertyPath: ColorModule.gradient.maxGradient.key0.r
      value: 1.0000
      objectReference: {fileID: 0}
    - target: {fileID: 19800000, guid: aad798475238be4438d53805788efc8f, type: 3}
      propertyPath: ColorModule.gradient.maxGradient.ctime0
      value: 0
      objectReference: {fileID: 0}
    - target: {fileID: 19800000, guid: aad798475238be4438d53805788efc8f, type: 3}
      propertyPath: CollisionModule.m_EnergyLossOnCollision.scalar
      value: 0
      objectReference: {fileID: 0}
    - target: {fileID: 19800000, guid: aad798475238be4438d53805788efc8f, type: 3}
      propertyPath: ColorModule.gradient.maxGradient.key1.g
      value: 1.0000
      objectReference: {fileID: 0}
    - target: {fileID: 19800000, guid: aad798475238be4438d53805788efc8f, type: 3}
      propertyPath: ColorModule.gradient.maxGradient.key1.b
      value: 1.0000
      objectReference: {fileID: 0}
    - target: {fileID: 19800000, guid: aad798475238be4438d53805788efc8f, type: 3}
      propertyPath: ColorModule.gradient.maxGradient.key1.a
      value: 1.0000
      objectReference: {fileID: 0}
    - target: {fileID: 19800000, guid: aad798475238be4438d53805788efc8f, type: 3}
      propertyPath: ColorModule.gradient.maxGradient.key2.g
      value: 0.0980
      objectReference: {fileID: 0}
    - target: {fileID: 19800000, guid: aad798475238be4438d53805788efc8f, type: 3}
      propertyPath: ColorModule.gradient.maxGradient.key2.b
      value: 1.0000
      objectReference: {fileID: 0}
    - target: {fileID: 19800000, guid: aad798475238be4438d53805788efc8f, type: 3}
      propertyPath: ColorModule.gradient.maxGradient.key2.a
      value: 0.0000
      objectReference: {fileID: 0}
    - target: {fileID: 19800000, guid: aad798475238be4438d53805788efc8f, type: 3}
      propertyPath: InitialModule.startSpeed.minScalar
      value: 4.0000
      objectReference: {fileID: 0}
    - target: {fileID: 19800000, guid: aad798475238be4438d53805788efc8f, type: 3}
      propertyPath: ColorModule.gradient.maxGradient.key0.g
      value: 1.0000
      objectReference: {fileID: 0}
    - target: {fileID: 19800000, guid: aad798475238be4438d53805788efc8f, type: 3}
      propertyPath: ColorModule.gradient.maxGradient.key0.b
      value: 1.0000
      objectReference: {fileID: 0}
    - target: {fileID: 19800000, guid: aad798475238be4438d53805788efc8f, type: 3}
      propertyPath: ColorModule.gradient.maxGradient.key0.a
      value: 1.0000
      objectReference: {fileID: 0}
    m_RemovedComponents: []
  m_SourcePrefab: {fileID: 100100000, guid: aad798475238be4438d53805788efc8f, type: 3}
--- !u!1001 &1955857237
PrefabInstance:
  m_ObjectHideFlags: 0
  serializedVersion: 2
  m_Modification:
    m_TransformParent: {fileID: 0}
    m_Modifications:
    - target: {fileID: 400000, guid: d87f062bb0ff994499ca2bc6d57d55ef, type: 3}
      propertyPath: m_LocalPosition.x
      value: 11.67931
      objectReference: {fileID: 0}
    - target: {fileID: 400000, guid: d87f062bb0ff994499ca2bc6d57d55ef, type: 3}
      propertyPath: m_LocalPosition.y
      value: 1
      objectReference: {fileID: 0}
    - target: {fileID: 400000, guid: d87f062bb0ff994499ca2bc6d57d55ef, type: 3}
      propertyPath: m_LocalPosition.z
      value: -5.5
      objectReference: {fileID: 0}
    - target: {fileID: 400000, guid: d87f062bb0ff994499ca2bc6d57d55ef, type: 3}
      propertyPath: m_LocalRotation.x
      value: -0.0000011305796
      objectReference: {fileID: 0}
    - target: {fileID: 400000, guid: d87f062bb0ff994499ca2bc6d57d55ef, type: 3}
      propertyPath: m_LocalRotation.y
      value: 0
      objectReference: {fileID: 0}
    - target: {fileID: 400000, guid: d87f062bb0ff994499ca2bc6d57d55ef, type: 3}
      propertyPath: m_LocalRotation.z
      value: 0
      objectReference: {fileID: 0}
    - target: {fileID: 400000, guid: d87f062bb0ff994499ca2bc6d57d55ef, type: 3}
      propertyPath: m_LocalRotation.w
      value: 1
      objectReference: {fileID: 0}
    - target: {fileID: 400000, guid: d87f062bb0ff994499ca2bc6d57d55ef, type: 3}
      propertyPath: m_RootMapOrder
      value: 
      objectReference: {fileID: 0}
    - target: {fileID: 400000, guid: d87f062bb0ff994499ca2bc6d57d55ef, type: 3}
      propertyPath: m_RootOrder
      value: 4
      objectReference: {fileID: 0}
    - target: {fileID: 19800000, guid: d87f062bb0ff994499ca2bc6d57d55ef, type: 3}
      propertyPath: ClampVelocityModule.magnitude.scalar
      value: 0
      objectReference: {fileID: 0}
    - target: {fileID: 19800000, guid: d87f062bb0ff994499ca2bc6d57d55ef, type: 3}
      propertyPath: ClampVelocityModule.dampen
      value: 0.2
      objectReference: {fileID: 0}
    - target: {fileID: 19800000, guid: d87f062bb0ff994499ca2bc6d57d55ef, type: 3}
      propertyPath: ColorModule.gradient.maxGradient.key0.r
      value: 1.0000
      objectReference: {fileID: 0}
    - target: {fileID: 19800000, guid: d87f062bb0ff994499ca2bc6d57d55ef, type: 3}
      propertyPath: ColorModule.gradient.maxGradient.key1.r
      value: 1.0000
      objectReference: {fileID: 0}
    - target: {fileID: 19800000, guid: d87f062bb0ff994499ca2bc6d57d55ef, type: 3}
      propertyPath: ColorModule.gradient.maxGradient.key2.r
      value: 1.0000
      objectReference: {fileID: 0}
    - target: {fileID: 19800000, guid: d87f062bb0ff994499ca2bc6d57d55ef, type: 3}
      propertyPath: ColorModule.gradient.maxGradient.ctime0
      value: 10263
      objectReference: {fileID: 0}
    - target: {fileID: 19800000, guid: d87f062bb0ff994499ca2bc6d57d55ef, type: 3}
      propertyPath: ColorModule.gradient.maxGradient.ctime1
      value: 37532
      objectReference: {fileID: 0}
    - target: {fileID: 19800000, guid: d87f062bb0ff994499ca2bc6d57d55ef, type: 3}
      propertyPath: ColorModule.gradient.maxGradient.ctime2
      value: 65388
      objectReference: {fileID: 0}
    - target: {fileID: 19800000, guid: d87f062bb0ff994499ca2bc6d57d55ef, type: 3}
      propertyPath: ColorModule.gradient.maxGradient.atime1
      value: 65535
      objectReference: {fileID: 0}
    - target: {fileID: 19800000, guid: d87f062bb0ff994499ca2bc6d57d55ef, type: 3}
      propertyPath: ColorModule.gradient.maxGradient.m_NumColorKeys
      value: 3
      objectReference: {fileID: 0}
    - target: {fileID: 19800000, guid: d87f062bb0ff994499ca2bc6d57d55ef, type: 3}
      propertyPath: ColorModule.gradient.maxGradient.m_NumAlphaKeys
      value: 2
      objectReference: {fileID: 0}
    - target: {fileID: 19800000, guid: d87f062bb0ff994499ca2bc6d57d55ef, type: 3}
      propertyPath: EmissionModule.rateOverTime.scalar
      value: 225
      objectReference: {fileID: 0}
    - target: {fileID: 19800000, guid: d87f062bb0ff994499ca2bc6d57d55ef, type: 3}
      propertyPath: InitialModule.startColor.maxColor.r
      value: 1.0000
      objectReference: {fileID: 0}
    - target: {fileID: 19800000, guid: d87f062bb0ff994499ca2bc6d57d55ef, type: 3}
      propertyPath: ColorModule.gradient.maxGradient.key0.g
      value: 1.0000
      objectReference: {fileID: 0}
    - target: {fileID: 19800000, guid: d87f062bb0ff994499ca2bc6d57d55ef, type: 3}
      propertyPath: ColorModule.gradient.maxGradient.key0.b
      value: 1.0000
      objectReference: {fileID: 0}
    - target: {fileID: 19800000, guid: d87f062bb0ff994499ca2bc6d57d55ef, type: 3}
      propertyPath: ColorModule.gradient.maxGradient.key0.a
      value: 1.0000
      objectReference: {fileID: 0}
    - target: {fileID: 19800000, guid: d87f062bb0ff994499ca2bc6d57d55ef, type: 3}
      propertyPath: ColorModule.gradient.maxGradient.key1.g
      value: 1.0000
      objectReference: {fileID: 0}
    - target: {fileID: 19800000, guid: d87f062bb0ff994499ca2bc6d57d55ef, type: 3}
      propertyPath: ColorModule.gradient.maxGradient.key1.b
      value: 0.0000
      objectReference: {fileID: 0}
    - target: {fileID: 19800000, guid: d87f062bb0ff994499ca2bc6d57d55ef, type: 3}
      propertyPath: ColorModule.gradient.maxGradient.key1.a
      value: 1.0000
      objectReference: {fileID: 0}
    - target: {fileID: 19800000, guid: d87f062bb0ff994499ca2bc6d57d55ef, type: 3}
      propertyPath: ColorModule.gradient.maxGradient.key2.g
      value: 0.7098
      objectReference: {fileID: 0}
    - target: {fileID: 19800000, guid: d87f062bb0ff994499ca2bc6d57d55ef, type: 3}
      propertyPath: ColorModule.gradient.maxGradient.key2.b
      value: 0.0000
      objectReference: {fileID: 0}
    - target: {fileID: 19800000, guid: d87f062bb0ff994499ca2bc6d57d55ef, type: 3}
      propertyPath: ColorModule.gradient.maxGradient.key2.a
      value: 0.0000
      objectReference: {fileID: 0}
    - target: {fileID: 19800000, guid: d87f062bb0ff994499ca2bc6d57d55ef, type: 3}
      propertyPath: InitialModule.startColor.maxColor.g
      value: 1.0000
      objectReference: {fileID: 0}
    - target: {fileID: 19800000, guid: d87f062bb0ff994499ca2bc6d57d55ef, type: 3}
      propertyPath: InitialModule.startColor.maxColor.b
      value: 1.0000
      objectReference: {fileID: 0}
    - target: {fileID: 19800000, guid: d87f062bb0ff994499ca2bc6d57d55ef, type: 3}
      propertyPath: InitialModule.startColor.maxColor.a
      value: 1.0000
      objectReference: {fileID: 0}
    - target: {fileID: 19900000, guid: d87f062bb0ff994499ca2bc6d57d55ef, type: 3}
      propertyPath: m_LengthScale
      value: 1
      objectReference: {fileID: 0}
    - target: {fileID: 19900000, guid: d87f062bb0ff994499ca2bc6d57d55ef, type: 3}
      propertyPath: m_VelocityScale
      value: 0.01
      objectReference: {fileID: 0}
    m_RemovedComponents: []
  m_SourcePrefab: {fileID: 100100000, guid: d87f062bb0ff994499ca2bc6d57d55ef, type: 3}
--- !u!1 &2099693340
GameObject:
  m_ObjectHideFlags: 0
  m_CorrespondingSourceObject: {fileID: 0}
  m_PrefabInstance: {fileID: 0}
  m_PrefabAsset: {fileID: 0}
  serializedVersion: 6
  m_Component:
  - component: {fileID: 2099693342}
  - component: {fileID: 2099693341}
  m_Layer: 0
  m_Name: Point light
  m_TagString: Untagged
  m_Icon: {fileID: 0}
  m_NavMeshLayer: 0
  m_StaticEditorFlags: 0
  m_IsActive: 1
--- !u!108 &2099693341
Light:
  m_ObjectHideFlags: 0
  m_CorrespondingSourceObject: {fileID: 0}
  m_PrefabInstance: {fileID: 0}
  m_PrefabAsset: {fileID: 0}
  m_GameObject: {fileID: 2099693340}
  m_Enabled: 1
  serializedVersion: 9
  m_Type: 2
  m_Color: {r: 1, g: 0.7020284, b: 0.16911763, a: 1}
  m_Intensity: 10
  m_Range: 6
  m_SpotAngle: 30
  m_InnerSpotAngle: 21.80208
  m_CookieSize: 10
  m_Shadows:
    m_Type: 0
    m_Resolution: -1
    m_CustomResolution: -1
    m_Strength: 1
    m_Bias: 0.05
    m_NormalBias: 0.4
    m_NearPlane: 0.2
    m_CullingMatrixOverride:
      e00: 1
      e01: 0
      e02: 0
      e03: 0
      e10: 0
      e11: 1
      e12: 0
      e13: 0
      e20: 0
      e21: 0
      e22: 1
      e23: 0
      e30: 0
      e31: 0
      e32: 0
      e33: 1
    m_UseCullingMatrixOverride: 0
  m_Cookie: {fileID: 0}
  m_DrawHalo: 0
  m_Flare: {fileID: 0}
  m_RenderMode: 0
  m_CullingMask:
    serializedVersion: 2
    m_Bits: 4294967295
  m_RenderingLayerMask: 1
  m_Lightmapping: 1
  m_LightShadowCasterMode: 0
  m_AreaSize: {x: 1, y: 1}
  m_BounceIntensity: 1
  m_ColorTemperature: 6570
  m_UseColorTemperature: 0
  m_BoundingSphereOverride: {x: 0, y: 0, z: 0, w: 0}
  m_UseBoundingSphereOverride: 0
  m_ShadowRadius: 0
  m_ShadowAngle: 0
--- !u!4 &2099693342
Transform:
  m_ObjectHideFlags: 0
  m_CorrespondingSourceObject: {fileID: 0}
  m_PrefabInstance: {fileID: 0}
  m_PrefabAsset: {fileID: 0}
  m_GameObject: {fileID: 2099693340}
  m_LocalRotation: {x: 0, y: 0, z: 0, w: 1}
  m_LocalPosition: {x: 10.883255, y: 1.5, z: -10.5}
  m_LocalScale: {x: 1, y: 1, z: 1}
  m_Children: []
  m_Father: {fileID: 0}
  m_RootOrder: 21
  m_LocalEulerAnglesHint: {x: 0, y: 0, z: 0}
--- !u!1 &2115858964
GameObject:
  m_ObjectHideFlags: 0
  m_CorrespondingSourceObject: {fileID: 0}
  m_PrefabInstance: {fileID: 0}
  m_PrefabAsset: {fileID: 0}
  serializedVersion: 6
  m_Component:
  - component: {fileID: 2115858966}
  - component: {fileID: 2115858965}
  m_Layer: 0
  m_Name: Point light
  m_TagString: Untagged
  m_Icon: {fileID: 0}
  m_NavMeshLayer: 0
  m_StaticEditorFlags: 0
  m_IsActive: 1
--- !u!108 &2115858965
Light:
  m_ObjectHideFlags: 0
  m_CorrespondingSourceObject: {fileID: 0}
  m_PrefabInstance: {fileID: 0}
  m_PrefabAsset: {fileID: 0}
  m_GameObject: {fileID: 2115858964}
  m_Enabled: 1
  serializedVersion: 9
  m_Type: 2
  m_Color: {r: 0.5, g: 0.751724, b: 1, a: 1}
  m_Intensity: 4
  m_Range: 25
  m_SpotAngle: 30
  m_InnerSpotAngle: 21.80208
  m_CookieSize: 10
  m_Shadows:
    m_Type: 0
    m_Resolution: -1
    m_CustomResolution: -1
    m_Strength: 1
    m_Bias: 0.05
    m_NormalBias: 0.4
    m_NearPlane: 0.2
    m_CullingMatrixOverride:
      e00: 1
      e01: 0
      e02: 0
      e03: 0
      e10: 0
      e11: 1
      e12: 0
      e13: 0
      e20: 0
      e21: 0
      e22: 1
      e23: 0
      e30: 0
      e31: 0
      e32: 0
      e33: 1
    m_UseCullingMatrixOverride: 0
  m_Cookie: {fileID: 0}
  m_DrawHalo: 0
  m_Flare: {fileID: 0}
  m_RenderMode: 0
  m_CullingMask:
    serializedVersion: 2
    m_Bits: 4294967295
  m_RenderingLayerMask: 1
  m_Lightmapping: 1
  m_LightShadowCasterMode: 0
  m_AreaSize: {x: 1, y: 1}
  m_BounceIntensity: 1
  m_ColorTemperature: 6570
  m_UseColorTemperature: 0
  m_BoundingSphereOverride: {x: 0, y: 0, z: 0, w: 0}
  m_UseBoundingSphereOverride: 0
  m_ShadowRadius: 0
  m_ShadowAngle: 0
--- !u!4 &2115858966
Transform:
  m_ObjectHideFlags: 0
  m_CorrespondingSourceObject: {fileID: 0}
  m_PrefabInstance: {fileID: 0}
  m_PrefabAsset: {fileID: 0}
  m_GameObject: {fileID: 2115858964}
  m_LocalRotation: {x: 0, y: 0, z: 0, w: 1}
  m_LocalPosition: {x: 15.89, y: 1.5, z: 5.44}
  m_LocalScale: {x: 1, y: 1, z: 1}
  m_Children: []
  m_Father: {fileID: 0}
  m_RootOrder: 17
  m_LocalEulerAnglesHint: {x: 0, y: 0, z: 0}
