%YAML 1.1
%TAG !u! tag:unity3d.com,2011:
--- !u!29 &1
OcclusionCullingSettings:
  m_ObjectHideFlags: 0
  serializedVersion: 2
  m_OcclusionBakeSettings:
    smallestOccluder: 5
    smallestHole: 0.25
    backfaceThreshold: 100
  m_SceneGUID: 00000000000000000000000000000000
  m_OcclusionCullingData: {fileID: 0}
--- !u!104 &2
RenderSettings:
  m_ObjectHideFlags: 0
  serializedVersion: 9
  m_Fog: 0
  m_FogColor: {r: 0.5, g: 0.5, b: 0.5, a: 1}
  m_FogMode: 3
  m_FogDensity: 0.01
  m_LinearFogStart: 0
  m_LinearFogEnd: 300
  m_AmbientSkyColor: {r: 0.2, g: 0.2, b: 0.2, a: 1}
  m_AmbientEquatorColor: {r: 0.2, g: 0.2, b: 0.2, a: 1}
  m_AmbientGroundColor: {r: 0.2, g: 0.2, b: 0.2, a: 1}
  m_AmbientIntensity: 1
  m_AmbientMode: 3
  m_SubtractiveShadowColor: {r: 0.42, g: 0.478, b: 0.627, a: 1}
  m_SkyboxMaterial: {fileID: 0}
  m_HaloStrength: 0.5
  m_FlareStrength: 1
  m_FlareFadeSpeed: 3
  m_HaloTexture: {fileID: 0}
  m_SpotCookie: {fileID: 10001, guid: 0000000000000000e000000000000000, type: 0}
  m_DefaultReflectionMode: 0
  m_DefaultReflectionResolution: 128
  m_ReflectionBounces: 1
  m_ReflectionIntensity: 1
  m_CustomReflection: {fileID: 0}
  m_Sun: {fileID: 0}
  m_IndirectSpecularColor: {r: 0, g: 0, b: 0, a: 1}
  m_UseRadianceAmbientProbe: 0
--- !u!157 &4
LightmapSettings:
  m_ObjectHideFlags: 0
  serializedVersion: 11
  m_GIWorkflowMode: 1
  m_GISettings:
    serializedVersion: 2
    m_BounceScale: 1
    m_IndirectOutputScale: 1
    m_AlbedoBoost: 1
    m_EnvironmentLightingMode: 0
    m_EnableBakedLightmaps: 1
    m_EnableRealtimeLightmaps: 0
  m_LightmapEditorSettings:
    serializedVersion: 12
    m_Resolution: 1
    m_BakeResolution: 50
    m_AtlasSize: 1024
    m_AO: 0
    m_AOMaxDistance: 1
    m_CompAOExponent: 0
    m_CompAOExponentDirect: 0
    m_ExtractAmbientOcclusion: 0
    m_Padding: 2
    m_LightmapParameters: {fileID: 0}
    m_LightmapsBakeMode: 1
    m_TextureCompression: 0
    m_FinalGather: 0
    m_FinalGatherFiltering: 1
    m_FinalGatherRayCount: 1024
    m_ReflectionCompression: 2
    m_MixedBakeMode: 1
    m_BakeBackend: 0
    m_PVRSampling: 1
    m_PVRDirectSampleCount: 32
    m_PVRSampleCount: 512
    m_PVRBounces: 2
    m_PVREnvironmentSampleCount: 512
    m_PVREnvironmentReferencePointCount: 2048
    m_PVRFilteringMode: 0
    m_PVRDenoiserTypeDirect: 0
    m_PVRDenoiserTypeIndirect: 0
    m_PVRDenoiserTypeAO: 0
    m_PVRFilterTypeDirect: 0
    m_PVRFilterTypeIndirect: 0
    m_PVRFilterTypeAO: 0
    m_PVREnvironmentMIS: 0
    m_PVRCulling: 1
    m_PVRFilteringGaussRadiusDirect: 1
    m_PVRFilteringGaussRadiusIndirect: 5
    m_PVRFilteringGaussRadiusAO: 2
    m_PVRFilteringAtrousPositionSigmaDirect: 0.5
    m_PVRFilteringAtrousPositionSigmaIndirect: 2
    m_PVRFilteringAtrousPositionSigmaAO: 1
    m_ExportTrainingData: 0
    m_TrainingDataDestination: TrainingData
  m_LightingDataAsset: {fileID: 0}
  m_UseShadowmask: 0
--- !u!196 &5
NavMeshSettings:
  serializedVersion: 2
  m_ObjectHideFlags: 0
  m_BuildSettings:
    serializedVersion: 2
    agentTypeID: 0
    agentRadius: 0.5
    agentHeight: 2
    agentSlope: 45
    agentClimb: 0.4
    ledgeDropHeight: 0
    maxJumpAcrossDistance: 0
    minRegionArea: 2
    manualCellSize: 0
    cellSize: 0.16666666
    manualTileSize: 0
    tileSize: 256
    accuratePlacement: 0
    debug:
      m_Flags: 0
  m_NavMeshData: {fileID: 0}
--- !u!1 &59639144
GameObject:
  m_ObjectHideFlags: 0
  m_CorrespondingSourceObject: {fileID: 0}
  m_PrefabInstance: {fileID: 0}
  m_PrefabAsset: {fileID: 0}
  serializedVersion: 6
  m_Component:
  - component: {fileID: 59639146}
  - component: {fileID: 59639145}
  m_Layer: 0
  m_Name: Point light
  m_TagString: Untagged
  m_Icon: {fileID: 0}
  m_NavMeshLayer: 0
  m_StaticEditorFlags: 0
  m_IsActive: 1
--- !u!108 &59639145
Light:
  m_ObjectHideFlags: 0
  m_CorrespondingSourceObject: {fileID: 0}
  m_PrefabInstance: {fileID: 0}
  m_PrefabAsset: {fileID: 0}
  m_GameObject: {fileID: 59639144}
  m_Enabled: 1
  serializedVersion: 9
  m_Type: 2
  m_Color: {r: 0.1281358, g: 0.14025024, b: 0.2205882, a: 1}
  m_Intensity: 10
  m_Range: 200
  m_SpotAngle: 30
  m_InnerSpotAngle: 21.80208
  m_CookieSize: 10
  m_Shadows:
    m_Type: 0
    m_Resolution: -1
    m_CustomResolution: -1
    m_Strength: 1
    m_Bias: 0.05
    m_NormalBias: 0.4
    m_NearPlane: 0.2
    m_CullingMatrixOverride:
      e00: 1
      e01: 0
      e02: 0
      e03: 0
      e10: 0
      e11: 1
      e12: 0
      e13: 0
      e20: 0
      e21: 0
      e22: 1
      e23: 0
      e30: 0
      e31: 0
      e32: 0
      e33: 1
    m_UseCullingMatrixOverride: 0
  m_Cookie: {fileID: 0}
  m_DrawHalo: 0
  m_Flare: {fileID: 0}
  m_RenderMode: 0
  m_CullingMask:
    serializedVersion: 2
    m_Bits: 4294967295
  m_RenderingLayerMask: 1
  m_Lightmapping: 1
  m_LightShadowCasterMode: 0
  m_AreaSize: {x: 1, y: 1}
  m_BounceIntensity: 1
  m_ColorTemperature: 6570
  m_UseColorTemperature: 0
  m_BoundingSphereOverride: {x: 0, y: 0, z: 0, w: 0}
  m_UseBoundingSphereOverride: 0
  m_ShadowRadius: 0
  m_ShadowAngle: 0
--- !u!4 &59639146
Transform:
  m_ObjectHideFlags: 0
  m_CorrespondingSourceObject: {fileID: 0}
  m_PrefabInstance: {fileID: 0}
  m_PrefabAsset: {fileID: 0}
  m_GameObject: {fileID: 59639144}
  m_LocalRotation: {x: 0, y: 0, z: 0, w: 1}
  m_LocalPosition: {x: -16.5, y: 28, z: 0}
  m_LocalScale: {x: 1, y: 1, z: 1}
  m_Children: []
  m_Father: {fileID: 0}
  m_RootOrder: 1
  m_LocalEulerAnglesHint: {x: 0, y: 0, z: 0}
--- !u!4 &204472629 stripped
Transform:
  m_CorrespondingSourceObject: {fileID: 400000, guid: 6da8b772050b9a3469c080014bb2d5cc,
    type: 3}
  m_PrefabInstance: {fileID: 1112828250}
  m_PrefabAsset: {fileID: 0}
--- !u!1 &240974291
GameObject:
  m_ObjectHideFlags: 0
  m_CorrespondingSourceObject: {fileID: 0}
  m_PrefabInstance: {fileID: 0}
  m_PrefabAsset: {fileID: 0}
  serializedVersion: 6
  m_Component:
  - component: {fileID: 240974292}
  m_Layer: 0
  m_Name: Sky
  m_TagString: Untagged
  m_Icon: {fileID: 0}
  m_NavMeshLayer: 0
  m_StaticEditorFlags: 0
  m_IsActive: 1
--- !u!4 &240974292
Transform:
  m_ObjectHideFlags: 0
  m_CorrespondingSourceObject: {fileID: 0}
  m_PrefabInstance: {fileID: 0}
  m_PrefabAsset: {fileID: 0}
  m_GameObject: {fileID: 240974291}
  m_LocalRotation: {x: 0, y: 0, z: 0, w: 1}
  m_LocalPosition: {x: -163.77351, y: 160, z: 188.09085}
  m_LocalScale: {x: 1, y: 1, z: 1}
  m_Children:
  - {fileID: 409867027}
  - {fileID: 204472629}
  - {fileID: 1194544482}
  - {fileID: 1676797274}
  m_Father: {fileID: 0}
  m_RootOrder: 4
  m_LocalEulerAnglesHint: {x: 0, y: 0, z: 0}
--- !u!4 &409867027 stripped
Transform:
  m_CorrespondingSourceObject: {fileID: 400000, guid: 61328fb0202f6ed4a95015c0658bdfee,
    type: 3}
  m_PrefabInstance: {fileID: 770290277}
  m_PrefabAsset: {fileID: 0}
--- !u!1001 &446868178
PrefabInstance:
  m_ObjectHideFlags: 0
  serializedVersion: 2
  m_Modification:
    m_TransformParent: {fileID: 0}
    m_Modifications:
    - target: {fileID: 22434116, guid: ef9ed1b79df4370459beb69434c0e6ef, type: 3}
      propertyPath: m_LocalPosition.x
      value: 0
      objectReference: {fileID: 0}
    - target: {fileID: 22434116, guid: ef9ed1b79df4370459beb69434c0e6ef, type: 3}
      propertyPath: m_LocalPosition.y
      value: 0
      objectReference: {fileID: 0}
    - target: {fileID: 22434116, guid: ef9ed1b79df4370459beb69434c0e6ef, type: 3}
      propertyPath: m_LocalPosition.z
      value: 0
      objectReference: {fileID: 0}
    - target: {fileID: 22434116, guid: ef9ed1b79df4370459beb69434c0e6ef, type: 3}
      propertyPath: m_LocalRotation.x
      value: 0
      objectReference: {fileID: 0}
    - target: {fileID: 22434116, guid: ef9ed1b79df4370459beb69434c0e6ef, type: 3}
      propertyPath: m_LocalRotation.y
      value: 0
      objectReference: {fileID: 0}
    - target: {fileID: 22434116, guid: ef9ed1b79df4370459beb69434c0e6ef, type: 3}
      propertyPath: m_LocalRotation.z
      value: 0
      objectReference: {fileID: 0}
    - target: {fileID: 22434116, guid: ef9ed1b79df4370459beb69434c0e6ef, type: 3}
      propertyPath: m_LocalRotation.w
      value: 1
      objectReference: {fileID: 0}
    - target: {fileID: 22434116, guid: ef9ed1b79df4370459beb69434c0e6ef, type: 3}
      propertyPath: m_RootOrder
      value: 5
      objectReference: {fileID: 0}
    - target: {fileID: 22434116, guid: ef9ed1b79df4370459beb69434c0e6ef, type: 3}
      propertyPath: m_AnchoredPosition.x
      value: 0
      objectReference: {fileID: 0}
    - target: {fileID: 22434116, guid: ef9ed1b79df4370459beb69434c0e6ef, type: 3}
      propertyPath: m_AnchoredPosition.y
      value: 0
      objectReference: {fileID: 0}
    - target: {fileID: 22434116, guid: ef9ed1b79df4370459beb69434c0e6ef, type: 3}
      propertyPath: m_SizeDelta.x
      value: 0
      objectReference: {fileID: 0}
    - target: {fileID: 22434116, guid: ef9ed1b79df4370459beb69434c0e6ef, type: 3}
      propertyPath: m_SizeDelta.y
      value: 0
      objectReference: {fileID: 0}
    - target: {fileID: 22434116, guid: ef9ed1b79df4370459beb69434c0e6ef, type: 3}
      propertyPath: m_AnchorMin.x
      value: 0
      objectReference: {fileID: 0}
    - target: {fileID: 22434116, guid: ef9ed1b79df4370459beb69434c0e6ef, type: 3}
      propertyPath: m_AnchorMin.y
      value: 0
      objectReference: {fileID: 0}
    - target: {fileID: 22434116, guid: ef9ed1b79df4370459beb69434c0e6ef, type: 3}
      propertyPath: m_AnchorMax.x
      value: 0
      objectReference: {fileID: 0}
    - target: {fileID: 22434116, guid: ef9ed1b79df4370459beb69434c0e6ef, type: 3}
      propertyPath: m_AnchorMax.y
      value: 0
      objectReference: {fileID: 0}
    - target: {fileID: 22434116, guid: ef9ed1b79df4370459beb69434c0e6ef, type: 3}
      propertyPath: m_Pivot.x
      value: 0
      objectReference: {fileID: 0}
    - target: {fileID: 22434116, guid: ef9ed1b79df4370459beb69434c0e6ef, type: 3}
      propertyPath: m_Pivot.y
      value: 0
      objectReference: {fileID: 0}
    m_RemovedComponents: []
  m_SourcePrefab: {fileID: 100100000, guid: ef9ed1b79df4370459beb69434c0e6ef, type: 3}
--- !u!1001 &581639745
PrefabInstance:
  m_ObjectHideFlags: 0
  serializedVersion: 2
  m_Modification:
    m_TransformParent: {fileID: 0}
    m_Modifications:
    - target: {fileID: 400000, guid: 9dba73926cf169047a9487057fbdd57a, type: 3}
      propertyPath: m_LocalPosition.x
      value: 46.010044
      objectReference: {fileID: 0}
    - target: {fileID: 400000, guid: 9dba73926cf169047a9487057fbdd57a, type: 3}
      propertyPath: m_LocalPosition.y
      value: 39.9
      objectReference: {fileID: 0}
    - target: {fileID: 400000, guid: 9dba73926cf169047a9487057fbdd57a, type: 3}
      propertyPath: m_LocalPosition.z
      value: -11.310741
      objectReference: {fileID: 0}
    - target: {fileID: 400000, guid: 9dba73926cf169047a9487057fbdd57a, type: 3}
      propertyPath: m_LocalRotation.x
      value: 0
      objectReference: {fileID: 0}
    - target: {fileID: 400000, guid: 9dba73926cf169047a9487057fbdd57a, type: 3}
      propertyPath: m_LocalRotation.y
      value: -0.707106
      objectReference: {fileID: 0}
    - target: {fileID: 400000, guid: 9dba73926cf169047a9487057fbdd57a, type: 3}
      propertyPath: m_LocalRotation.z
      value: 0
      objectReference: {fileID: 0}
    - target: {fileID: 400000, guid: 9dba73926cf169047a9487057fbdd57a, type: 3}
      propertyPath: m_LocalRotation.w
      value: 0.7071076
      objectReference: {fileID: 0}
    - target: {fileID: 400000, guid: 9dba73926cf169047a9487057fbdd57a, type: 3}
      propertyPath: m_RootMapOrder
      value: 
      objectReference: {fileID: 0}
    - target: {fileID: 400000, guid: 9dba73926cf169047a9487057fbdd57a, type: 3}
      propertyPath: m_LocalScale.x
      value: 1.1155599
      objectReference: {fileID: 0}
    - target: {fileID: 400000, guid: 9dba73926cf169047a9487057fbdd57a, type: 3}
      propertyPath: m_LocalEulerAnglesHint.y
      value: -89.9999
      objectReference: {fileID: 0}
    m_RemovedComponents: []
  m_SourcePrefab: {fileID: 100100000, guid: 9dba73926cf169047a9487057fbdd57a, type: 3}
--- !u!1001 &644750571
PrefabInstance:
  m_ObjectHideFlags: 0
  serializedVersion: 2
  m_Modification:
    m_TransformParent: {fileID: 240974292}
    m_Modifications:
    - target: {fileID: 400000, guid: d7caf4c84792aa248befb0247b288688, type: 3}
      propertyPath: m_LocalPosition.x
      value: 186.533707
      objectReference: {fileID: 0}
    - target: {fileID: 400000, guid: d7caf4c84792aa248befb0247b288688, type: 3}
      propertyPath: m_LocalPosition.y
      value: 70
      objectReference: {fileID: 0}
    - target: {fileID: 400000, guid: d7caf4c84792aa248befb0247b288688, type: 3}
      propertyPath: m_LocalPosition.z
      value: -186.606476
      objectReference: {fileID: 0}
    - target: {fileID: 400000, guid: d7caf4c84792aa248befb0247b288688, type: 3}
      propertyPath: m_LocalRotation.x
      value: -.707106829
      objectReference: {fileID: 0}
    - target: {fileID: 400000, guid: d7caf4c84792aa248befb0247b288688, type: 3}
      propertyPath: m_LocalRotation.y
      value: 0
      objectReference: {fileID: 0}
    - target: {fileID: 400000, guid: d7caf4c84792aa248befb0247b288688, type: 3}
      propertyPath: m_LocalRotation.z
      value: 0
      objectReference: {fileID: 0}
    - target: {fileID: 400000, guid: d7caf4c84792aa248befb0247b288688, type: 3}
      propertyPath: m_LocalRotation.w
      value: .707106829
      objectReference: {fileID: 0}
    - target: {fileID: 400000, guid: d7caf4c84792aa248befb0247b288688, type: 3}
      propertyPath: m_RootMapOrder
      value: 
      objectReference: {fileID: 0}
    - target: {fileID: 400000, guid: d7caf4c84792aa248befb0247b288688, type: 3}
      propertyPath: m_RootOrder
      value: 3
      objectReference: {fileID: 0}
    m_RemovedComponents: []
  m_SourcePrefab: {fileID: 100100000, guid: d7caf4c84792aa248befb0247b288688, type: 3}
--- !u!1001 &770290277
PrefabInstance:
  m_ObjectHideFlags: 0
  serializedVersion: 2
  m_Modification:
    m_TransformParent: {fileID: 240974292}
    m_Modifications:
    - target: {fileID: 400000, guid: 61328fb0202f6ed4a95015c0658bdfee, type: 3}
      propertyPath: m_LocalPosition.x
      value: 188.773514
      objectReference: {fileID: 0}
    - target: {fileID: 400000, guid: 61328fb0202f6ed4a95015c0658bdfee, type: 3}
      propertyPath: m_LocalPosition.y
      value: 120
      objectReference: {fileID: 0}
    - target: {fileID: 400000, guid: 61328fb0202f6ed4a95015c0658bdfee, type: 3}
      propertyPath: m_LocalPosition.z
      value: -188.090851
      objectReference: {fileID: 0}
    - target: {fileID: 400000, guid: 61328fb0202f6ed4a95015c0658bdfee, type: 3}
      propertyPath: m_LocalRotation.x
      value: 0
      objectReference: {fileID: 0}
    - target: {fileID: 400000, guid: 61328fb0202f6ed4a95015c0658bdfee, type: 3}
      propertyPath: m_LocalRotation.y
      value: 0
      objectReference: {fileID: 0}
    - target: {fileID: 400000, guid: 61328fb0202f6ed4a95015c0658bdfee, type: 3}
      propertyPath: m_LocalRotation.z
      value: 0
      objectReference: {fileID: 0}
    - target: {fileID: 400000, guid: 61328fb0202f6ed4a95015c0658bdfee, type: 3}
      propertyPath: m_LocalRotation.w
      value: 1
      objectReference: {fileID: 0}
    - target: {fileID: 400000, guid: 61328fb0202f6ed4a95015c0658bdfee, type: 3}
      propertyPath: m_RootMapOrder
      value: 
      objectReference: {fileID: 0}
    - target: {fileID: 400000, guid: 61328fb0202f6ed4a95015c0658bdfee, type: 3}
      propertyPath: m_RootOrder
      value: 0
      objectReference: {fileID: 0}
    m_RemovedComponents: []
  m_SourcePrefab: {fileID: 100100000, guid: 61328fb0202f6ed4a95015c0658bdfee, type: 3}
--- !u!1001 &1026970476
PrefabInstance:
  m_ObjectHideFlags: 0
  serializedVersion: 2
  m_Modification:
    m_TransformParent: {fileID: 240974292}
    m_Modifications:
    - target: {fileID: 400000, guid: 6da8b772050b9a3469c080014bb2d5cc, type: 3}
      propertyPath: m_LocalPosition.x
      value: 165.70462
      objectReference: {fileID: 0}
    - target: {fileID: 400000, guid: 6da8b772050b9a3469c080014bb2d5cc, type: 3}
      propertyPath: m_LocalPosition.y
      value: 0
      objectReference: {fileID: 0}
    - target: {fileID: 400000, guid: 6da8b772050b9a3469c080014bb2d5cc, type: 3}
      propertyPath: m_LocalPosition.z
      value: -488.84256
      objectReference: {fileID: 0}
    - target: {fileID: 400000, guid: 6da8b772050b9a3469c080014bb2d5cc, type: 3}
      propertyPath: m_LocalRotation.x
      value: -.707106829
      objectReference: {fileID: 0}
    - target: {fileID: 400000, guid: 6da8b772050b9a3469c080014bb2d5cc, type: 3}
      propertyPath: m_LocalRotation.y
      value: 0
      objectReference: {fileID: 0}
    - target: {fileID: 400000, guid: 6da8b772050b9a3469c080014bb2d5cc, type: 3}
      propertyPath: m_LocalRotation.z
      value: 0
      objectReference: {fileID: 0}
    - target: {fileID: 400000, guid: 6da8b772050b9a3469c080014bb2d5cc, type: 3}
      propertyPath: m_LocalRotation.w
      value: .707106829
      objectReference: {fileID: 0}
    - target: {fileID: 400000, guid: 6da8b772050b9a3469c080014bb2d5cc, type: 3}
      propertyPath: m_RootMapOrder
      value: 
      objectReference: {fileID: 0}
    - target: {fileID: 400000, guid: 6da8b772050b9a3469c080014bb2d5cc, type: 3}
      propertyPath: m_RootOrder
      value: 4
      objectReference: {fileID: 0}
    - target: {fileID: 19800000, guid: 6da8b772050b9a3469c080014bb2d5cc, type: 3}
      propertyPath: InitialModule.startColor.maxColor.r
      value: 1.0000
      objectReference: {fileID: 0}
    - target: {fileID: 19800000, guid: 6da8b772050b9a3469c080014bb2d5cc, type: 3}
      propertyPath: EmissionModule.rateOverTime.scalar
      value: 15
      objectReference: {fileID: 0}
    - target: {fileID: 19800000, guid: 6da8b772050b9a3469c080014bb2d5cc, type: 3}
      propertyPath: InitialModule.maxNumParticles
      value: 55
      objectReference: {fileID: 0}
    - target: {fileID: 19800000, guid: 6da8b772050b9a3469c080014bb2d5cc, type: 3}
      propertyPath: InitialModule.startColor.maxColor.g
      value: 1.0000
      objectReference: {fileID: 0}
    - target: {fileID: 19800000, guid: 6da8b772050b9a3469c080014bb2d5cc, type: 3}
      propertyPath: InitialModule.startColor.maxColor.b
      value: 1.0000
      objectReference: {fileID: 0}
    - target: {fileID: 19800000, guid: 6da8b772050b9a3469c080014bb2d5cc, type: 3}
      propertyPath: InitialModule.startColor.maxColor.a
      value: 0.4353
      objectReference: {fileID: 0}
    m_RemovedComponents: []
  m_SourcePrefab: {fileID: 100100000, guid: 6da8b772050b9a3469c080014bb2d5cc, type: 3}
--- !u!1001 &1112828250
PrefabInstance:
  m_ObjectHideFlags: 0
  serializedVersion: 2
  m_Modification:
    m_TransformParent: {fileID: 240974292}
    m_Modifications:
    - target: {fileID: 400000, guid: 6da8b772050b9a3469c080014bb2d5cc, type: 3}
      propertyPath: m_LocalPosition.x
      value: 165.70462
      objectReference: {fileID: 0}
    - target: {fileID: 400000, guid: 6da8b772050b9a3469c080014bb2d5cc, type: 3}
      propertyPath: m_LocalPosition.y
      value: 20
      objectReference: {fileID: 0}
    - target: {fileID: 400000, guid: 6da8b772050b9a3469c080014bb2d5cc, type: 3}
      propertyPath: m_LocalPosition.z
      value: -.495773315
      objectReference: {fileID: 0}
    - target: {fileID: 400000, guid: 6da8b772050b9a3469c080014bb2d5cc, type: 3}
      propertyPath: m_LocalRotation.x
      value: -.707106829
      objectReference: {fileID: 0}
    - target: {fileID: 400000, guid: 6da8b772050b9a3469c080014bb2d5cc, type: 3}
      propertyPath: m_LocalRotation.y
      value: 0
      objectReference: {fileID: 0}
    - target: {fileID: 400000, guid: 6da8b772050b9a3469c080014bb2d5cc, type: 3}
      propertyPath: m_LocalRotation.z
      value: 0
      objectReference: {fileID: 0}
    - target: {fileID: 400000, guid: 6da8b772050b9a3469c080014bb2d5cc, type: 3}
      propertyPath: m_LocalRotation.w
      value: .707106829
      objectReference: {fileID: 0}
    - target: {fileID: 400000, guid: 6da8b772050b9a3469c080014bb2d5cc, type: 3}
      propertyPath: m_RootMapOrder
      value: 
      objectReference: {fileID: 0}
    - target: {fileID: 400000, guid: 6da8b772050b9a3469c080014bb2d5cc, type: 3}
      propertyPath: m_RootOrder
      value: 2
      objectReference: {fileID: 0}
    - target: {fileID: 19800000, guid: 6da8b772050b9a3469c080014bb2d5cc, type: 3}
      propertyPath: InitialModule.startColor.maxColor.r
      value: 1.0000
      objectReference: {fileID: 0}
    - target: {fileID: 19800000, guid: 6da8b772050b9a3469c080014bb2d5cc, type: 3}
      propertyPath: ShapeModule.boxY
      value: 200
      objectReference: {fileID: 0}
    - target: {fileID: 19800000, guid: 6da8b772050b9a3469c080014bb2d5cc, type: 3}
      propertyPath: InitialModule.startColor.maxColor.g
      value: 1.0000
      objectReference: {fileID: 0}
    - target: {fileID: 19800000, guid: 6da8b772050b9a3469c080014bb2d5cc, type: 3}
      propertyPath: InitialModule.startColor.maxColor.b
      value: 1.0000
      objectReference: {fileID: 0}
    - target: {fileID: 19800000, guid: 6da8b772050b9a3469c080014bb2d5cc, type: 3}
      propertyPath: InitialModule.startColor.maxColor.a
      value: 0.1922
      objectReference: {fileID: 0}
    m_RemovedComponents: []
  m_SourcePrefab: {fileID: 100100000, guid: 6da8b772050b9a3469c080014bb2d5cc, type: 3}
--- !u!4 &1194544482 stripped
Transform:
  m_CorrespondingSourceObject: {fileID: 400000, guid: d7caf4c84792aa248befb0247b288688,
    type: 3}
  m_PrefabInstance: {fileID: 644750571}
  m_PrefabAsset: {fileID: 0}
--- !u!4 &1676797274 stripped
Transform:
  m_CorrespondingSourceObject: {fileID: 400000, guid: 6da8b772050b9a3469c080014bb2d5cc,
    type: 3}
  m_PrefabInstance: {fileID: 1026970476}
  m_PrefabAsset: {fileID: 0}
--- !u!1 &1885190681
GameObject:
  m_ObjectHideFlags: 0
  m_CorrespondingSourceObject: {fileID: 0}
  m_PrefabInstance: {fileID: 0}
  m_PrefabAsset: {fileID: 0}
  serializedVersion: 6
  m_Component:
  - component: {fileID: 1885190683}
  - component: {fileID: 1885190682}
  m_Layer: 0
  m_Name: Area Light
  m_TagString: Untagged
  m_Icon: {fileID: 0}
  m_NavMeshLayer: 0
  m_StaticEditorFlags: 0
  m_IsActive: 1
--- !u!108 &1885190682
Light:
  m_ObjectHideFlags: 0
  m_CorrespondingSourceObject: {fileID: 0}
  m_PrefabInstance: {fileID: 0}
  m_PrefabAsset: {fileID: 0}
  m_GameObject: {fileID: 1885190681}
  m_Enabled: 1
  serializedVersion: 9
  m_Type: 1
  m_Color: {r: 1, g: 1, b: 1, a: 1}
  m_Intensity: 0.26
  m_Range: 10
  m_SpotAngle: 30
  m_InnerSpotAngle: 21.80208
  m_CookieSize: 10
  m_Shadows:
    m_Type: 2
    m_Resolution: -1
    m_CustomResolution: -1
    m_Strength: 1
    m_Bias: 0.05
    m_NormalBias: 0.4
    m_NearPlane: 0.2
    m_CullingMatrixOverride:
      e00: 1
      e01: 0
      e02: 0
      e03: 0
      e10: 0
      e11: 1
      e12: 0
      e13: 0
      e20: 0
      e21: 0
      e22: 1
      e23: 0
      e30: 0
      e31: 0
      e32: 0
      e33: 1
    m_UseCullingMatrixOverride: 0
  m_Cookie: {fileID: 0}
  m_DrawHalo: 0
  m_Flare: {fileID: 0}
  m_RenderMode: 0
  m_CullingMask:
    serializedVersion: 2
    m_Bits: 4294967295
  m_RenderingLayerMask: 1
  m_Lightmapping: 1
  m_LightShadowCasterMode: 0
  m_AreaSize: {x: 1, y: 1}
  m_BounceIntensity: 1
  m_ColorTemperature: 6570
  m_UseColorTemperature: 0
  m_BoundingSphereOverride: {x: 0, y: 0, z: 0, w: 0}
  m_UseBoundingSphereOverride: 0
  m_ShadowRadius: 0
  m_ShadowAngle: 0
--- !u!4 &1885190683
Transform:
  m_ObjectHideFlags: 0
  m_CorrespondingSourceObject: {fileID: 0}
  m_PrefabInstance: {fileID: 0}
  m_PrefabAsset: {fileID: 0}
  m_GameObject: {fileID: 1885190681}
  m_LocalRotation: {x: 0.7071068, y: 0, z: 0, w: 0.7071068}
  m_LocalPosition: {x: -4.365946, y: 1.1266165, z: 1.8410965}
  m_LocalScale: {x: 1, y: 1, z: 1}
  m_Children: []
  m_Father: {fileID: 0}
  m_RootOrder: 2
  m_LocalEulerAnglesHint: {x: 90, y: 0, z: 0}
--- !u!1001 &1982447685
PrefabInstance:
  m_ObjectHideFlags: 0
  serializedVersion: 2
  m_Modification:
    m_TransformParent: {fileID: 0}
    m_Modifications:
    - target: {fileID: 400002, guid: 883d4e1770a426943ac00edd5ba02308, type: 3}
      propertyPath: m_LocalPosition.x
      value: -72.60892
      objectReference: {fileID: 0}
    - target: {fileID: 400002, guid: 883d4e1770a426943ac00edd5ba02308, type: 3}
      propertyPath: m_LocalPosition.y
      value: 12.479152
      objectReference: {fileID: 0}
    - target: {fileID: 400002, guid: 883d4e1770a426943ac00edd5ba02308, type: 3}
      propertyPath: m_LocalPosition.z
      value: 0
      objectReference: {fileID: 0}
    - target: {fileID: 400002, guid: 883d4e1770a426943ac00edd5ba02308, type: 3}
      propertyPath: m_LocalRotation.x
      value: -0.12761515
      objectReference: {fileID: 0}
    - target: {fileID: 400002, guid: 883d4e1770a426943ac00edd5ba02308, type: 3}
      propertyPath: m_LocalRotation.y
      value: 0.6981965
      objectReference: {fileID: 0}
    - target: {fileID: 400002, guid: 883d4e1770a426943ac00edd5ba02308, type: 3}
      propertyPath: m_LocalRotation.z
      value: 0.116193235
      objectReference: {fileID: 0}
    - target: {fileID: 400002, guid: 883d4e1770a426943ac00edd5ba02308, type: 3}
      propertyPath: m_LocalRotation.w
      value: 0.6947915
      objectReference: {fileID: 0}
    - target: {fileID: 400002, guid: 883d4e1770a426943ac00edd5ba02308, type: 3}
      propertyPath: m_RootMapOrder
      value: 
      objectReference: {fileID: 0}
    - target: {fileID: 400002, guid: 883d4e1770a426943ac00edd5ba02308, type: 3}
      propertyPath: m_RootOrder
      value: 3
      objectReference: {fileID: 0}
    - target: {fileID: 400002, guid: 883d4e1770a426943ac00edd5ba02308, type: 3}
      propertyPath: m_LocalEulerAnglesHint.x
      value: -19.8515
      objectReference: {fileID: 0}
    - target: {fileID: 400002, guid: 883d4e1770a426943ac00edd5ba02308, type: 3}
      propertyPath: m_LocalEulerAnglesHint.y
      value: 90.458595
      objectReference: {fileID: 0}
    - target: {fileID: 400002, guid: 883d4e1770a426943ac00edd5ba02308, type: 3}
      propertyPath: m_LocalEulerAnglesHint.z
      value: -1.0198
      objectReference: {fileID: 0}
    - target: {fileID: 2000000, guid: 883d4e1770a426943ac00edd5ba02308, type: 3}
      propertyPath: m_BackGroundColor.r
      value: 0.02745098
      objectReference: {fileID: 0}
    - target: {fileID: 2000000, guid: 883d4e1770a426943ac00edd5ba02308, type: 3}
      propertyPath: m_BackGroundColor.g
      value: 0.02745098
      objectReference: {fileID: 0}
    - target: {fileID: 2000000, guid: 883d4e1770a426943ac00edd5ba02308, type: 3}
      propertyPath: m_BackGroundColor.b
      value: 0.058823533
      objectReference: {fileID: 0}
    - target: {fileID: 11400002, guid: 883d4e1770a426943ac00edd5ba02308, type: 3}
      propertyPath: VPselStrings.Array.size
      value: 11
      objectReference: {fileID: 0}
    - target: {fileID: 11400002, guid: 883d4e1770a426943ac00edd5ba02308, type: 3}
      propertyPath: VPselStrings.Array.data[10]
      value: 11
      objectReference: {fileID: 0}
    - target: {fileID: 11400002, guid: 883d4e1770a426943ac00edd5ba02308, type: 3}
      propertyPath: m_Enabled
      value: 1
      objectReference: {fileID: 0}
    - target: {fileID: 11400000, guid: 883d4e1770a426943ac00edd5ba02308, type: 3}
      propertyPath: m_Enabled
      value: 1
      objectReference: {fileID: 0}
    m_RemovedComponents: []
  m_SourcePrefab: {fileID: 100100000, guid: 883d4e1770a426943ac00edd5ba02308, type: 3}
