%YAML 1.1
%TAG !u! tag:unity3d.com,2011:
--- !u!29 &1
OcclusionCullingSettings:
  m_ObjectHideFlags: 0
  serializedVersion: 2
  m_OcclusionBakeSettings:
    smallestOccluder: 5
    smallestHole: 0.25
    backfaceThreshold: 100
  m_SceneGUID: 00000000000000000000000000000000
  m_OcclusionCullingData: {fileID: 0}
--- !u!104 &2
RenderSettings:
  m_ObjectHideFlags: 0
  serializedVersion: 9
  m_Fog: 0
  m_FogColor: {r: 0.5, g: 0.5, b: 0.5, a: 1}
  m_FogMode: 3
  m_FogDensity: 0.01
  m_LinearFogStart: 0
  m_LinearFogEnd: 300
  m_AmbientSkyColor: {r: 0.2, g: 0.2, b: 0.2, a: 1}
  m_AmbientEquatorColor: {r: 0.2, g: 0.2, b: 0.2, a: 1}
  m_AmbientGroundColor: {r: 0.2, g: 0.2, b: 0.2, a: 1}
  m_AmbientIntensity: 1
  m_AmbientMode: 3
  m_SubtractiveShadowColor: {r: 0.42, g: 0.478, b: 0.627, a: 1}
  m_SkyboxMaterial: {fileID: 0}
  m_HaloStrength: 0.5
  m_FlareStrength: 1
  m_FlareFadeSpeed: 3
  m_HaloTexture: {fileID: 0}
  m_SpotCookie: {fileID: 10001, guid: 0000000000000000e000000000000000, type: 0}
  m_DefaultReflectionMode: 0
  m_DefaultReflectionResolution: 128
  m_ReflectionBounces: 1
  m_ReflectionIntensity: 1
  m_CustomReflection: {fileID: 0}
  m_Sun: {fileID: 0}
  m_IndirectSpecularColor: {r: 0, g: 0, b: 0, a: 1}
  m_UseRadianceAmbientProbe: 0
--- !u!157 &4
LightmapSettings:
  m_ObjectHideFlags: 0
  serializedVersion: 11
  m_GIWorkflowMode: 1
  m_GISettings:
    serializedVersion: 2
    m_BounceScale: 1
    m_IndirectOutputScale: 1
    m_AlbedoBoost: 1
    m_EnvironmentLightingMode: 0
    m_EnableBakedLightmaps: 1
    m_EnableRealtimeLightmaps: 0
  m_LightmapEditorSettings:
    serializedVersion: 12
    m_Resolution: 1
    m_BakeResolution: 50
    m_AtlasSize: 1024
    m_AO: 0
    m_AOMaxDistance: 1
    m_CompAOExponent: 0
    m_CompAOExponentDirect: 0
    m_ExtractAmbientOcclusion: 0
    m_Padding: 2
    m_LightmapParameters: {fileID: 0}
    m_LightmapsBakeMode: 1
    m_TextureCompression: 0
    m_FinalGather: 0
    m_FinalGatherFiltering: 1
    m_FinalGatherRayCount: 1024
    m_ReflectionCompression: 2
    m_MixedBakeMode: 1
    m_BakeBackend: 0
    m_PVRSampling: 1
    m_PVRDirectSampleCount: 32
    m_PVRSampleCount: 512
    m_PVRBounces: 2
    m_PVREnvironmentSampleCount: 512
    m_PVREnvironmentReferencePointCount: 2048
    m_PVRFilteringMode: 0
    m_PVRDenoiserTypeDirect: 0
    m_PVRDenoiserTypeIndirect: 0
    m_PVRDenoiserTypeAO: 0
    m_PVRFilterTypeDirect: 0
    m_PVRFilterTypeIndirect: 0
    m_PVRFilterTypeAO: 0
    m_PVREnvironmentMIS: 0
    m_PVRCulling: 1
    m_PVRFilteringGaussRadiusDirect: 1
    m_PVRFilteringGaussRadiusIndirect: 5
    m_PVRFilteringGaussRadiusAO: 2
    m_PVRFilteringAtrousPositionSigmaDirect: 0.5
    m_PVRFilteringAtrousPositionSigmaIndirect: 2
    m_PVRFilteringAtrousPositionSigmaAO: 1
    m_ExportTrainingData: 0
    m_TrainingDataDestination: TrainingData
  m_LightingDataAsset: {fileID: 0}
  m_UseShadowmask: 0
--- !u!196 &5
NavMeshSettings:
  serializedVersion: 2
  m_ObjectHideFlags: 0
  m_BuildSettings:
    serializedVersion: 2
    agentTypeID: 0
    agentRadius: 0.5
    agentHeight: 2
    agentSlope: 45
    agentClimb: 0.4
    ledgeDropHeight: 0
    maxJumpAcrossDistance: 0
    minRegionArea: 2
    manualCellSize: 0
    cellSize: 0.16666666
    manualTileSize: 0
    tileSize: 256
    accuratePlacement: 0
    debug:
      m_Flags: 0
  m_NavMeshData: {fileID: 0}
--- !u!1 &59639144
GameObject:
  m_ObjectHideFlags: 0
  m_CorrespondingSourceObject: {fileID: 0}
  m_PrefabInstance: {fileID: 0}
  m_PrefabAsset: {fileID: 0}
  serializedVersion: 6
  m_Component:
  - component: {fileID: 59639146}
  - component: {fileID: 59639145}
  m_Layer: 0
  m_Name: Point light
  m_TagString: Untagged
  m_Icon: {fileID: 0}
  m_NavMeshLayer: 0
  m_StaticEditorFlags: 0
  m_IsActive: 1
--- !u!108 &59639145
Light:
  m_ObjectHideFlags: 0
  m_CorrespondingSourceObject: {fileID: 0}
  m_PrefabInstance: {fileID: 0}
  m_PrefabAsset: {fileID: 0}
  m_GameObject: {fileID: 59639144}
  m_Enabled: 1
  serializedVersion: 9
  m_Type: 2
  m_Color: {r: 0.12456747, g: 0.20671758, b: 0.2647059, a: 1}
  m_Intensity: 12.08
  m_Range: 250
  m_SpotAngle: 30
  m_InnerSpotAngle: 21.80208
  m_CookieSize: 10
  m_Shadows:
    m_Type: 0
    m_Resolution: -1
    m_CustomResolution: -1
    m_Strength: 1
    m_Bias: 0.05
    m_NormalBias: 0.4
    m_NearPlane: 0.2
    m_CullingMatrixOverride:
      e00: 1
      e01: 0
      e02: 0
      e03: 0
      e10: 0
      e11: 1
      e12: 0
      e13: 0
      e20: 0
      e21: 0
      e22: 1
      e23: 0
      e30: 0
      e31: 0
      e32: 0
      e33: 1
    m_UseCullingMatrixOverride: 0
  m_Cookie: {fileID: 0}
  m_DrawHalo: 0
  m_Flare: {fileID: 0}
  m_RenderMode: 0
  m_CullingMask:
    serializedVersion: 2
    m_Bits: 4294967295
  m_RenderingLayerMask: 1
  m_Lightmapping: 1
  m_LightShadowCasterMode: 0
  m_AreaSize: {x: 1, y: 1}
  m_BounceIntensity: 1
  m_ColorTemperature: 6570
  m_UseColorTemperature: 0
  m_BoundingSphereOverride: {x: 0, y: 0, z: 0, w: 0}
  m_UseBoundingSphereOverride: 0
  m_ShadowRadius: 0
  m_ShadowAngle: 0
--- !u!4 &59639146
Transform:
  m_ObjectHideFlags: 0
  m_CorrespondingSourceObject: {fileID: 0}
  m_PrefabInstance: {fileID: 0}
  m_PrefabAsset: {fileID: 0}
  m_GameObject: {fileID: 59639144}
  m_LocalRotation: {x: 0, y: 0, z: 0, w: 1}
  m_LocalPosition: {x: -23.09183, y: 29.189318, z: 0}
  m_LocalScale: {x: 1, y: 1, z: 1}
  m_Children: []
  m_Father: {fileID: 0}
  m_RootOrder: 3
  m_LocalEulerAnglesHint: {x: 0, y: 0, z: 0}
--- !u!1001 &84891398
PrefabInstance:
  m_ObjectHideFlags: 0
  serializedVersion: 2
  m_Modification:
    m_TransformParent: {fileID: 0}
    m_Modifications:
    - target: {fileID: 400000, guid: 13115409a684e6049ae88ae3c2ad00fa, type: 3}
      propertyPath: m_LocalPosition.x
      value: 0.68199587
      objectReference: {fileID: 0}
    - target: {fileID: 400000, guid: 13115409a684e6049ae88ae3c2ad00fa, type: 3}
      propertyPath: m_LocalPosition.y
      value: 0.66654766
      objectReference: {fileID: 0}
    - target: {fileID: 400000, guid: 13115409a684e6049ae88ae3c2ad00fa, type: 3}
      propertyPath: m_LocalPosition.z
      value: 2.0830698
      objectReference: {fileID: 0}
    - target: {fileID: 400000, guid: 13115409a684e6049ae88ae3c2ad00fa, type: 3}
      propertyPath: m_LocalRotation.x
      value: -0.7071068
      objectReference: {fileID: 0}
    - target: {fileID: 400000, guid: 13115409a684e6049ae88ae3c2ad00fa, type: 3}
      propertyPath: m_LocalRotation.y
      value: 0
      objectReference: {fileID: 0}
    - target: {fileID: 400000, guid: 13115409a684e6049ae88ae3c2ad00fa, type: 3}
      propertyPath: m_LocalRotation.z
      value: 0
      objectReference: {fileID: 0}
    - target: {fileID: 400000, guid: 13115409a684e6049ae88ae3c2ad00fa, type: 3}
      propertyPath: m_LocalRotation.w
      value: 0.7071068
      objectReference: {fileID: 0}
    - target: {fileID: 400000, guid: 13115409a684e6049ae88ae3c2ad00fa, type: 3}
      propertyPath: m_RootMapOrder
      value: 
      objectReference: {fileID: 0}
    - target: {fileID: 400000, guid: 13115409a684e6049ae88ae3c2ad00fa, type: 3}
      propertyPath: m_RootOrder
      value: 7
      objectReference: {fileID: 0}
    m_RemovedComponents: []
  m_SourcePrefab: {fileID: 100100000, guid: 13115409a684e6049ae88ae3c2ad00fa, type: 3}
--- !u!1001 &138272592
PrefabInstance:
  m_ObjectHideFlags: 0
  serializedVersion: 2
  m_Modification:
    m_TransformParent: {fileID: 0}
    m_Modifications:
    - target: {fileID: 400002, guid: 3dcdf1f715405bf49b490d41cf0ebc5d, type: 3}
      propertyPath: m_LocalPosition.x
      value: 19.38213
      objectReference: {fileID: 0}
    - target: {fileID: 400002, guid: 3dcdf1f715405bf49b490d41cf0ebc5d, type: 3}
      propertyPath: m_LocalPosition.y
      value: 20.203674
      objectReference: {fileID: 0}
    - target: {fileID: 400002, guid: 3dcdf1f715405bf49b490d41cf0ebc5d, type: 3}
      propertyPath: m_LocalPosition.z
      value: 12.397944
      objectReference: {fileID: 0}
    - target: {fileID: 400002, guid: 3dcdf1f715405bf49b490d41cf0ebc5d, type: 3}
      propertyPath: m_LocalRotation.x
      value: -0.7071068
      objectReference: {fileID: 0}
    - target: {fileID: 400002, guid: 3dcdf1f715405bf49b490d41cf0ebc5d, type: 3}
      propertyPath: m_LocalRotation.y
      value: 0
      objectReference: {fileID: 0}
    - target: {fileID: 400002, guid: 3dcdf1f715405bf49b490d41cf0ebc5d, type: 3}
      propertyPath: m_LocalRotation.z
      value: 0
      objectReference: {fileID: 0}
    - target: {fileID: 400002, guid: 3dcdf1f715405bf49b490d41cf0ebc5d, type: 3}
      propertyPath: m_LocalRotation.w
      value: 0.7071068
      objectReference: {fileID: 0}
    - target: {fileID: 400002, guid: 3dcdf1f715405bf49b490d41cf0ebc5d, type: 3}
      propertyPath: m_RootOrder
      value: 1
      objectReference: {fileID: 0}
    m_RemovedComponents: []
  m_SourcePrefab: {fileID: 100100000, guid: 3dcdf1f715405bf49b490d41cf0ebc5d, type: 3}
--- !u!1001 &695158444
PrefabInstance:
  m_ObjectHideFlags: 0
  serializedVersion: 2
  m_Modification:
    m_TransformParent: {fileID: 0}
    m_Modifications:
    - target: {fileID: 400002, guid: 883d4e1770a426943ac00edd5ba02308, type: 3}
      propertyPath: m_LocalPosition.x
      value: -8.134183
      objectReference: {fileID: 0}
    - target: {fileID: 400002, guid: 883d4e1770a426943ac00edd5ba02308, type: 3}
      propertyPath: m_LocalPosition.y
      value: 8
      objectReference: {fileID: 0}
    - target: {fileID: 400002, guid: 883d4e1770a426943ac00edd5ba02308, type: 3}
      propertyPath: m_LocalPosition.z
      value: 0
      objectReference: {fileID: 0}
    - target: {fileID: 400002, guid: 883d4e1770a426943ac00edd5ba02308, type: 3}
      propertyPath: m_LocalRotation.x
      value: 0.12278781
      objectReference: {fileID: 0}
    - target: {fileID: 400002, guid: 883d4e1770a426943ac00edd5ba02308, type: 3}
      propertyPath: m_LocalRotation.y
      value: 0.6963643
      objectReference: {fileID: 0}
    - target: {fileID: 400002, guid: 883d4e1770a426943ac00edd5ba02308, type: 3}
      propertyPath: m_LocalRotation.z
      value: -0.12278781
      objectReference: {fileID: 0}
    - target: {fileID: 400002, guid: 883d4e1770a426943ac00edd5ba02308, type: 3}
      propertyPath: m_LocalRotation.w
      value: 0.6963643
      objectReference: {fileID: 0}
    - target: {fileID: 400002, guid: 883d4e1770a426943ac00edd5ba02308, type: 3}
      propertyPath: m_RootMapOrder
      value: 
      objectReference: {fileID: 0}
    - target: {fileID: 400002, guid: 883d4e1770a426943ac00edd5ba02308, type: 3}
      propertyPath: m_RootOrder
      value: 10
      objectReference: {fileID: 0}
    - target: {fileID: 2000000, guid: 883d4e1770a426943ac00edd5ba02308, type: 3}
      propertyPath: m_BackGroundColor.r
      value: 0.023529414
      objectReference: {fileID: 0}
    - target: {fileID: 2000000, guid: 883d4e1770a426943ac00edd5ba02308, type: 3}
      propertyPath: m_BackGroundColor.g
      value: 0.023529414
      objectReference: {fileID: 0}
    - target: {fileID: 2000000, guid: 883d4e1770a426943ac00edd5ba02308, type: 3}
      propertyPath: m_BackGroundColor.b
      value: 0.023529414
      objectReference: {fileID: 0}
    - target: {fileID: 11400002, guid: 883d4e1770a426943ac00edd5ba02308, type: 3}
      propertyPath: VPselStrings.Array.size
      value: 11
      objectReference: {fileID: 0}
    - target: {fileID: 11400002, guid: 883d4e1770a426943ac00edd5ba02308, type: 3}
      propertyPath: VPselStrings.Array.data[10]
      value: 11
      objectReference: {fileID: 0}
    m_RemovedComponents: []
  m_SourcePrefab: {fileID: 100100000, guid: 883d4e1770a426943ac00edd5ba02308, type: 3}
--- !u!1001 &817679902
PrefabInstance:
  m_ObjectHideFlags: 0
  serializedVersion: 2
  m_Modification:
    m_TransformParent: {fileID: 0}
    m_Modifications:
    - target: {fileID: 400000, guid: 67bed91d49929c442ac1729303261d65, type: 3}
      propertyPath: m_LocalPosition.x
      value: 16.372534
      objectReference: {fileID: 0}
    - target: {fileID: 400000, guid: 67bed91d49929c442ac1729303261d65, type: 3}
      propertyPath: m_LocalPosition.y
      value: 16.329662
      objectReference: {fileID: 0}
    - target: {fileID: 400000, guid: 67bed91d49929c442ac1729303261d65, type: 3}
      propertyPath: m_LocalPosition.z
      value: -15.309773
      objectReference: {fileID: 0}
    - target: {fileID: 400000, guid: 67bed91d49929c442ac1729303261d65, type: 3}
      propertyPath: m_LocalRotation.x
      value: -0.7071068
      objectReference: {fileID: 0}
    - target: {fileID: 400000, guid: 67bed91d49929c442ac1729303261d65, type: 3}
      propertyPath: m_LocalRotation.y
      value: 0
      objectReference: {fileID: 0}
    - target: {fileID: 400000, guid: 67bed91d49929c442ac1729303261d65, type: 3}
      propertyPath: m_LocalRotation.z
      value: 0
      objectReference: {fileID: 0}
    - target: {fileID: 400000, guid: 67bed91d49929c442ac1729303261d65, type: 3}
      propertyPath: m_LocalRotation.w
      value: 0.7071068
      objectReference: {fileID: 0}
    - target: {fileID: 400000, guid: 67bed91d49929c442ac1729303261d65, type: 3}
      propertyPath: m_RootMapOrder
      value: 
      objectReference: {fileID: 0}
    - target: {fileID: 400000, guid: 67bed91d49929c442ac1729303261d65, type: 3}
      propertyPath: m_RootOrder
      value: 9
      objectReference: {fileID: 0}
    m_RemovedComponents: []
  m_SourcePrefab: {fileID: 100100000, guid: 67bed91d49929c442ac1729303261d65, type: 3}
--- !u!1001 &954074258
PrefabInstance:
  m_ObjectHideFlags: 0
  serializedVersion: 2
  m_Modification:
    m_TransformParent: {fileID: 0}
    m_Modifications:
    - target: {fileID: 400000, guid: b7fc7606b61996746a60959e2e8a0442, type: 3}
      propertyPath: m_LocalPosition.x
      value: 0.68199587
      objectReference: {fileID: 0}
    - target: {fileID: 400000, guid: b7fc7606b61996746a60959e2e8a0442, type: 3}
      propertyPath: m_LocalPosition.y
      value: 0.66654766
      objectReference: {fileID: 0}
    - target: {fileID: 400000, guid: b7fc7606b61996746a60959e2e8a0442, type: 3}
      propertyPath: m_LocalPosition.z
      value: -4.386606
      objectReference: {fileID: 0}
    - target: {fileID: 400000, guid: b7fc7606b61996746a60959e2e8a0442, type: 3}
      propertyPath: m_LocalRotation.x
      value: -0.7071068
      objectReference: {fileID: 0}
    - target: {fileID: 400000, guid: b7fc7606b61996746a60959e2e8a0442, type: 3}
      propertyPath: m_LocalRotation.y
      value: 0
      objectReference: {fileID: 0}
    - target: {fileID: 400000, guid: b7fc7606b61996746a60959e2e8a0442, type: 3}
      propertyPath: m_LocalRotation.z
      value: 0
      objectReference: {fileID: 0}
    - target: {fileID: 400000, guid: b7fc7606b61996746a60959e2e8a0442, type: 3}
      propertyPath: m_LocalRotation.w
      value: 0.7071068
      objectReference: {fileID: 0}
    - target: {fileID: 400000, guid: b7fc7606b61996746a60959e2e8a0442, type: 3}
      propertyPath: m_RootMapOrder
      value: 
      objectReference: {fileID: 0}
    - target: {fileID: 400000, guid: b7fc7606b61996746a60959e2e8a0442, type: 3}
      propertyPath: m_RootOrder
      value: 8
      objectReference: {fileID: 0}
    m_RemovedComponents: []
  m_SourcePrefab: {fileID: 100100000, guid: b7fc7606b61996746a60959e2e8a0442, type: 3}
--- !u!1001 &1078545477
PrefabInstance:
  m_ObjectHideFlags: 0
  serializedVersion: 2
  m_Modification:
    m_TransformParent: {fileID: 0}
    m_Modifications:
    - target: {fileID: 400000, guid: 367bfb6f469a7734f88f6f94a1ad10b0, type: 3}
      propertyPath: m_LocalPosition.x
      value: 0.68199587
      objectReference: {fileID: 0}
    - target: {fileID: 400000, guid: 367bfb6f469a7734f88f6f94a1ad10b0, type: 3}
      propertyPath: m_LocalPosition.y
      value: 0.66654766
      objectReference: {fileID: 0}
    - target: {fileID: 400000, guid: 367bfb6f469a7734f88f6f94a1ad10b0, type: 3}
      propertyPath: m_LocalPosition.z
      value: -6.5987453
      objectReference: {fileID: 0}
    - target: {fileID: 400000, guid: 367bfb6f469a7734f88f6f94a1ad10b0, type: 3}
      propertyPath: m_LocalRotation.x
      value: -0.7071068
      objectReference: {fileID: 0}
    - target: {fileID: 400000, guid: 367bfb6f469a7734f88f6f94a1ad10b0, type: 3}
      propertyPath: m_LocalRotation.y
      value: 0
      objectReference: {fileID: 0}
    - target: {fileID: 400000, guid: 367bfb6f469a7734f88f6f94a1ad10b0, type: 3}
      propertyPath: m_LocalRotation.z
      value: 0
      objectReference: {fileID: 0}
    - target: {fileID: 400000, guid: 367bfb6f469a7734f88f6f94a1ad10b0, type: 3}
      propertyPath: m_LocalRotation.w
      value: 0.7071068
      objectReference: {fileID: 0}
    - target: {fileID: 400000, guid: 367bfb6f469a7734f88f6f94a1ad10b0, type: 3}
      propertyPath: m_RootMapOrder
      value: 
      objectReference: {fileID: 0}
    - target: {fileID: 400000, guid: 367bfb6f469a7734f88f6f94a1ad10b0, type: 3}
      propertyPath: m_RootOrder
      value: 6
      objectReference: {fileID: 0}
    m_RemovedComponents: []
  m_SourcePrefab: {fileID: 100100000, guid: 367bfb6f469a7734f88f6f94a1ad10b0, type: 3}
--- !u!1 &1340984878
GameObject:
  m_ObjectHideFlags: 0
  m_CorrespondingSourceObject: {fileID: 0}
  m_PrefabInstance: {fileID: 0}
  m_PrefabAsset: {fileID: 0}
  serializedVersion: 6
  m_Component:
  - component: {fileID: 1340984882}
  - component: {fileID: 1340984881}
  - component: {fileID: 1340984880}
  - component: {fileID: 1340984879}
  m_Layer: 0
  m_Name: Plane
  m_TagString: Untagged
  m_Icon: {fileID: 0}
  m_NavMeshLayer: 0
  m_StaticEditorFlags: 0
  m_IsActive: 1
--- !u!23 &1340984879
MeshRenderer:
  m_ObjectHideFlags: 0
  m_CorrespondingSourceObject: {fileID: 0}
  m_PrefabInstance: {fileID: 0}
  m_PrefabAsset: {fileID: 0}
  m_GameObject: {fileID: 1340984878}
  m_Enabled: 1
  m_CastShadows: 1
  m_ReceiveShadows: 1
  m_DynamicOccludee: 1
  m_MotionVectors: 1
  m_LightProbeUsage: 0
  m_ReflectionProbeUsage: 1
  m_RenderingLayerMask: 1
  m_RendererPriority: 0
  m_Materials:
  - {fileID: 2100000, guid: 2c043007b4d31c340a6ccf15136ec3b1, type: 2}
  m_StaticBatchInfo:
    firstSubMesh: 0
    subMeshCount: 0
  m_StaticBatchRoot: {fileID: 0}
  m_ProbeAnchor: {fileID: 0}
  m_LightProbeVolumeOverride: {fileID: 0}
  m_ScaleInLightmap: 1
  m_ReceiveGI: 1
  m_PreserveUVs: 0
  m_IgnoreNormalsForChartDetection: 0
  m_ImportantGI: 0
  m_StitchLightmapSeams: 1
  m_SelectedEditorRenderState: 3
  m_MinimumChartSize: 4
  m_AutoUVMaxDistance: 0.5
  m_AutoUVMaxAngle: 89
  m_LightmapParameters: {fileID: 0}
  m_SortingLayerID: 0
  m_SortingLayer: 0
  m_SortingOrder: 0
--- !u!64 &1340984880
MeshCollider:
  m_ObjectHideFlags: 0
  m_CorrespondingSourceObject: {fileID: 0}
  m_PrefabInstance: {fileID: 0}
  m_PrefabAsset: {fileID: 0}
  m_GameObject: {fileID: 1340984878}
  m_Material: {fileID: 0}
  m_IsTrigger: 0
  m_Enabled: 1
  serializedVersion: 3
  m_Convex: 0
  m_CookingOptions: 14
  m_Mesh: {fileID: 10209, guid: 0000000000000000e000000000000000, type: 0}
--- !u!33 &1340984881
MeshFilter:
  m_ObjectHideFlags: 0
  m_CorrespondingSourceObject: {fileID: 0}
  m_PrefabInstance: {fileID: 0}
  m_PrefabAsset: {fileID: 0}
  m_GameObject: {fileID: 1340984878}
  m_Mesh: {fileID: 10209, guid: 0000000000000000e000000000000000, type: 0}
--- !u!4 &1340984882
Transform:
  m_ObjectHideFlags: 0
  m_CorrespondingSourceObject: {fileID: 0}
  m_PrefabInstance: {fileID: 0}
  m_PrefabAsset: {fileID: 0}
  m_GameObject: {fileID: 1340984878}
  m_LocalRotation: {x: 0, y: 0, z: 0, w: 1}
  m_LocalPosition: {x: 0, y: 0, z: 0}
  m_LocalScale: {x: 35, y: 35, z: 35}
  m_Children: []
  m_Father: {fileID: 0}
  m_RootOrder: 2
  m_LocalEulerAnglesHint: {x: 0, y: 0, z: 0}
--- !u!1001 &1399464042
PrefabInstance:
  m_ObjectHideFlags: 0
  serializedVersion: 2
  m_Modification:
    m_TransformParent: {fileID: 0}
    m_Modifications:
    - target: {fileID: 400000, guid: 9e63e42566b4f394d94c6d093e06debf, type: 3}
      propertyPath: m_LocalPosition.x
      value: 0.68199587
      objectReference: {fileID: 0}
    - target: {fileID: 400000, guid: 9e63e42566b4f394d94c6d093e06debf, type: 3}
      propertyPath: m_LocalPosition.y
      value: 0.66654766
      objectReference: {fileID: 0}
    - target: {fileID: 400000, guid: 9e63e42566b4f394d94c6d093e06debf, type: 3}
      propertyPath: m_LocalPosition.z
      value: 6.1934023
      objectReference: {fileID: 0}
    - target: {fileID: 400000, guid: 9e63e42566b4f394d94c6d093e06debf, type: 3}
      propertyPath: m_LocalRotation.x
      value: -0.7071068
      objectReference: {fileID: 0}
    - target: {fileID: 400000, guid: 9e63e42566b4f394d94c6d093e06debf, type: 3}
      propertyPath: m_LocalRotation.y
      value: 0
      objectReference: {fileID: 0}
    - target: {fileID: 400000, guid: 9e63e42566b4f394d94c6d093e06debf, type: 3}
      propertyPath: m_LocalRotation.z
      value: 0
      objectReference: {fileID: 0}
    - target: {fileID: 400000, guid: 9e63e42566b4f394d94c6d093e06debf, type: 3}
      propertyPath: m_LocalRotation.w
      value: 0.7071068
      objectReference: {fileID: 0}
    - target: {fileID: 400000, guid: 9e63e42566b4f394d94c6d093e06debf, type: 3}
      propertyPath: m_RootMapOrder
      value: 
      objectReference: {fileID: 0}
    - target: {fileID: 400000, guid: 9e63e42566b4f394d94c6d093e06debf, type: 3}
      propertyPath: m_RootOrder
      value: 5
      objectReference: {fileID: 0}
    m_RemovedComponents: []
  m_SourcePrefab: {fileID: 100100000, guid: 9e63e42566b4f394d94c6d093e06debf, type: 3}
--- !u!1001 &1510438252
PrefabInstance:
  m_ObjectHideFlags: 0
  serializedVersion: 2
  m_Modification:
    m_TransformParent: {fileID: 0}
    m_Modifications:
    - target: {fileID: 22434116, guid: ef9ed1b79df4370459beb69434c0e6ef, type: 3}
      propertyPath: m_LocalPosition.x
      value: 0
      objectReference: {fileID: 0}
    - target: {fileID: 22434116, guid: ef9ed1b79df4370459beb69434c0e6ef, type: 3}
      propertyPath: m_LocalPosition.y
      value: 0
      objectReference: {fileID: 0}
    - target: {fileID: 22434116, guid: ef9ed1b79df4370459beb69434c0e6ef, type: 3}
      propertyPath: m_LocalPosition.z
      value: 0
      objectReference: {fileID: 0}
    - target: {fileID: 22434116, guid: ef9ed1b79df4370459beb69434c0e6ef, type: 3}
      propertyPath: m_LocalRotation.x
      value: 0
      objectReference: {fileID: 0}
    - target: {fileID: 22434116, guid: ef9ed1b79df4370459beb69434c0e6ef, type: 3}
      propertyPath: m_LocalRotation.y
      value: 0
      objectReference: {fileID: 0}
    - target: {fileID: 22434116, guid: ef9ed1b79df4370459beb69434c0e6ef, type: 3}
      propertyPath: m_LocalRotation.z
      value: 0
      objectReference: {fileID: 0}
    - target: {fileID: 22434116, guid: ef9ed1b79df4370459beb69434c0e6ef, type: 3}
      propertyPath: m_LocalRotation.w
      value: 1
      objectReference: {fileID: 0}
    - target: {fileID: 22434116, guid: ef9ed1b79df4370459beb69434c0e6ef, type: 3}
      propertyPath: m_RootOrder
      value: 11
      objectReference: {fileID: 0}
    - target: {fileID: 22434116, guid: ef9ed1b79df4370459beb69434c0e6ef, type: 3}
      propertyPath: m_AnchoredPosition.x
      value: 0
      objectReference: {fileID: 0}
    - target: {fileID: 22434116, guid: ef9ed1b79df4370459beb69434c0e6ef, type: 3}
      propertyPath: m_AnchoredPosition.y
      value: 0
      objectReference: {fileID: 0}
    - target: {fileID: 22434116, guid: ef9ed1b79df4370459beb69434c0e6ef, type: 3}
      propertyPath: m_SizeDelta.x
      value: 0
      objectReference: {fileID: 0}
    - target: {fileID: 22434116, guid: ef9ed1b79df4370459beb69434c0e6ef, type: 3}
      propertyPath: m_SizeDelta.y
      value: 0
      objectReference: {fileID: 0}
    - target: {fileID: 22434116, guid: ef9ed1b79df4370459beb69434c0e6ef, type: 3}
      propertyPath: m_AnchorMin.x
      value: 0
      objectReference: {fileID: 0}
    - target: {fileID: 22434116, guid: ef9ed1b79df4370459beb69434c0e6ef, type: 3}
      propertyPath: m_AnchorMin.y
      value: 0
      objectReference: {fileID: 0}
    - target: {fileID: 22434116, guid: ef9ed1b79df4370459beb69434c0e6ef, type: 3}
      propertyPath: m_AnchorMax.x
      value: 0
      objectReference: {fileID: 0}
    - target: {fileID: 22434116, guid: ef9ed1b79df4370459beb69434c0e6ef, type: 3}
      propertyPath: m_AnchorMax.y
      value: 0
      objectReference: {fileID: 0}
    - target: {fileID: 22434116, guid: ef9ed1b79df4370459beb69434c0e6ef, type: 3}
      propertyPath: m_Pivot.x
      value: 0
      objectReference: {fileID: 0}
    - target: {fileID: 22434116, guid: ef9ed1b79df4370459beb69434c0e6ef, type: 3}
      propertyPath: m_Pivot.y
      value: 0
      objectReference: {fileID: 0}
    m_RemovedComponents: []
  m_SourcePrefab: {fileID: 100100000, guid: ef9ed1b79df4370459beb69434c0e6ef, type: 3}
--- !u!1001 &1832245491
PrefabInstance:
  m_ObjectHideFlags: 0
  serializedVersion: 2
  m_Modification:
    m_TransformParent: {fileID: 0}
    m_Modifications:
    - target: {fileID: 400000, guid: 24a3d87de95e9694aacd8d4b72c226e3, type: 3}
      propertyPath: m_LocalPosition.x
      value: 21.678146
      objectReference: {fileID: 0}
    - target: {fileID: 400000, guid: 24a3d87de95e9694aacd8d4b72c226e3, type: 3}
      propertyPath: m_LocalPosition.y
      value: 1.2781181
      objectReference: {fileID: 0}
    - target: {fileID: 400000, guid: 24a3d87de95e9694aacd8d4b72c226e3, type: 3}
      propertyPath: m_LocalPosition.z
      value: 0.21271741
      objectReference: {fileID: 0}
    - target: {fileID: 400000, guid: 24a3d87de95e9694aacd8d4b72c226e3, type: 3}
      propertyPath: m_LocalRotation.x
      value: -0.7071068
      objectReference: {fileID: 0}
    - target: {fileID: 400000, guid: 24a3d87de95e9694aacd8d4b72c226e3, type: 3}
      propertyPath: m_LocalRotation.y
      value: 0
      objectReference: {fileID: 0}
    - target: {fileID: 400000, guid: 24a3d87de95e9694aacd8d4b72c226e3, type: 3}
      propertyPath: m_LocalRotation.z
      value: 0
      objectReference: {fileID: 0}
    - target: {fileID: 400000, guid: 24a3d87de95e9694aacd8d4b72c226e3, type: 3}
      propertyPath: m_LocalRotation.w
      value: 0.7071068
      objectReference: {fileID: 0}
    - target: {fileID: 400000, guid: 24a3d87de95e9694aacd8d4b72c226e3, type: 3}
      propertyPath: m_RootOrder
      value: 4
      objectReference: {fileID: 0}
    m_RemovedComponents: []
  m_SourcePrefab: {fileID: 100100000, guid: 24a3d87de95e9694aacd8d4b72c226e3, type: 3}
--- !u!1001 &1855996245
PrefabInstance:
  m_ObjectHideFlags: 0
  serializedVersion: 2
  m_Modification:
    m_TransformParent: {fileID: 0}
    m_Modifications:
    - target: {fileID: 400000, guid: 87e53ea782e04c64ea9cf11e8588cb88, type: 3}
      propertyPath: m_LocalPosition.x
      value: 0.68199587
      objectReference: {fileID: 0}
    - target: {fileID: 400000, guid: 87e53ea782e04c64ea9cf11e8588cb88, type: 3}
      propertyPath: m_LocalPosition.y
      value: 0.66654766
      objectReference: {fileID: 0}
    - target: {fileID: 400000, guid: 87e53ea782e04c64ea9cf11e8588cb88, type: 3}
      propertyPath: m_LocalPosition.z
      value: -1.9940224
      objectReference: {fileID: 0}
    - target: {fileID: 400000, guid: 87e53ea782e04c64ea9cf11e8588cb88, type: 3}
      propertyPath: m_LocalRotation.x
      value: -0.7071068
      objectReference: {fileID: 0}
    - target: {fileID: 400000, guid: 87e53ea782e04c64ea9cf11e8588cb88, type: 3}
      propertyPath: m_LocalRotation.y
      value: 0
      objectReference: {fileID: 0}
    - target: {fileID: 400000, guid: 87e53ea782e04c64ea9cf11e8588cb88, type: 3}
      propertyPath: m_LocalRotation.z
      value: 0
      objectReference: {fileID: 0}
    - target: {fileID: 400000, guid: 87e53ea782e04c64ea9cf11e8588cb88, type: 3}
      propertyPath: m_LocalRotation.w
      value: 0.7071068
      objectReference: {fileID: 0}
    - target: {fileID: 400000, guid: 87e53ea782e04c64ea9cf11e8588cb88, type: 3}
      propertyPath: m_RootMapOrder
      value: 
      objectReference: {fileID: 0}
    m_RemovedComponents: []
  m_SourcePrefab: {fileID: 100100000, guid: 87e53ea782e04c64ea9cf11e8588cb88, type: 3}
