%YAML 1.1
%TAG !u! tag:unity3d.com,2011:
--- !u!1045 &1
EditorBuildSettings:
  m_ObjectHideFlags: 0
  serializedVersion: 2
  m_Scenes:
  - enabled: 1
    path: Assets/Scenes/Menu.unity
    guid: 29d4476b561899445b03b912a3293a68
  - enabled: 0
    path: Assets/Scenes/BonDebut.unity
    guid: 1f2c61b848411c4449a473e614388e83
  - enabled: 1
    path: Assets/Scenes/hub.unity
    guid: 5349448965fe10341a26fb4196bbeed1
  - enabled: 1
    path: Assets/Scenes/boss.unity
    guid: 00ca28a4d61555d42a01d2c7336715db
  - enabled: 1
    path: Assets/Scenes/Ecran_Game_Over.unity
    guid: 8bae1aea07ff0c64ca455b2e25e2ba52
  m_configObjects: {}
